# Blender MTL File: 'ahmad maad.blend'
# Material Count: 7

newmtl Material
Ns 96.078431
Ka 1.000000 1.000000 1.000000
Kd 0.640000 0.569702 0.428036
Ks 0.000000 0.000000 0.000000
Ke 0.000000 0.000000 0.000000
Ni 1.000000
d 1.000000
illum 1
map_Kd BrickLargeBare0123_2_S.jpg
map_Bump -bm 0.417476 BrickLargeBare0123_2_S.jpg

newmtl Material.001
Ns 96.078431
Ka 1.000000 1.000000 1.000000
Kd 0.422167 0.357036 0.222520
Ks 0.000000 0.000000 0.000000
Ke 0.000000 0.000000 0.000000
Ni 1.000000
d 1.000000
illum 1
map_Kd  BrickLargeBare0123_2_S.jpg

newmtl Material.001_BrickLargeBare0123_2_
Ns 96.078431
Ka 1.000000 1.000000 1.000000
Kd 0.422167 0.357036 0.222520
Ks 0.000000 0.000000 0.000000
Ke 0.000000 0.000000 0.000000
Ni 1.000000
d 1.000000
illum 1
map_Kd BrickLargeBare0123_2_S.jpg

newmtl Material.002
Ns 96.078431
Ka 0.024590 0.024590 0.024590
Kd 0.035562 0.035562 0.035562
Ks 0.500000 0.500000 0.500000
Ke 0.000000 0.000000 0.000000
Ni 1.000000
d 1.000000
illum 3
map_Kd BrickLargeBare0123_2_S.jpg

newmtl Material.003
Ns 96.078431
Ka 1.000000 1.000000 1.000000
Kd 0.640000 0.640000 0.640000
Ks 0.000000 0.000000 0.000000
Ke 0.000000 0.000000 0.000000
Ni 1.000000
d 1.000000
illum 1
map_Kd BrickLargeBare0123_2_S.jpg

newmtl Material.004
Ns 749.999996
Ka 1.000000 1.000000 1.000000
Kd 0.095417 0.080628 0.063995
Ks 0.000000 0.000000 0.000000
Ke 0.000000 0.000000 0.000000
Ni 1.000000
d 1.000000
illum 1
map_Kd BrickLargeBare0123_2_S.jpg

newmtl sand
Ns 96.078431
Ka 1.000000 1.000000 1.000000
Kd 0.640000 0.640000 0.640000
Ks 0.000000 0.000000 0.000000
Ke 0.000000 0.000000 0.000000
Ni 1.000000
d 1.000000
illum 1
map_Kd SoilBeach0097_2_S.jpg
map_Bump -bm 0.100000 SoilBeach0097_2_S.jpg
