# Blender v2.77 (sub 0) OBJ File: 'LowPolyToonTree.blend'
# www.blender.org
mtllib LowPolyToonTree.mtl
o ToonTree_Cube.010
v -0.681902 8.709070 0.385660
v 0.606317 8.574649 0.602453
v -0.340915 8.720157 -0.815560
v 1.077248 8.705844 -0.655486
v -0.014152 8.697935 0.836125
v 0.130600 8.718197 -1.001215
v -0.680398 8.718478 -0.418291
v 1.179090 8.698107 -0.071377
v 0.203573 9.693206 -0.042850
v -0.788541 7.516034 -0.903253
v -0.621360 7.484661 0.973031
v 0.834509 7.572486 -1.225387
v 1.441012 7.485090 0.763622
v -1.099288 7.499960 0.357757
v 1.354027 7.512734 -0.703274
v 0.109697 7.649377 -1.447695
v 0.625409 7.529271 1.346032
v 0.180350 9.037762 0.058632
v 1.497977 6.074511 -1.235226
v -0.911922 5.851420 -1.019147
v 1.453147 6.074511 1.074825
v -1.160039 6.074511 1.455568
v 0.091000 6.074511 -1.727192
v 0.696739 6.074512 1.628893
v 1.873681 6.074511 0.204180
v -1.617209 6.074511 0.458198
v 0.136005 7.900307 -0.035182
v 2.144798 4.659354 -0.939726
v -0.783867 4.472400 -1.710339
v 1.255809 4.659354 1.726293
v -1.916374 4.659354 1.221621
v 0.637178 4.743755 -2.169109
v 0.176784 4.659354 2.095588
v 2.059538 4.659354 0.867725
v -2.138040 4.743755 -0.250483
v 0.076416 6.964540 -0.188166
v 1.599751 3.033515 2.236421
v 1.817181 2.699146 -1.383492
v -1.879302 2.952828 1.655125
v -1.795227 3.033514 -2.303369
v 2.642808 3.033515 0.260909
v -2.725094 3.080574 0.310258
v -0.617414 3.033515 2.472100
v -0.215026 3.033514 -2.758413
v 0.125044 5.770011 -0.049899
v -2.378302 1.165568 1.767861
v 1.610126 0.797750 1.688513
v -2.039957 1.165567 -2.026457
v 2.301689 1.165567 -2.353348
v -0.120533 1.165568 2.738187
v -0.732389 1.165567 -2.851114
v -2.831360 1.165568 -0.642637
v 2.939373 1.165568 -0.660557
v -0.000739 4.175817 -0.049899
v 0.212409 9.477008 -0.037573
v 0.212409 9.477008 0.037574
v 0.137283 9.478801 0.037573
v 0.137283 9.478801 -0.037574
v 0.553186 0.845358 -0.535220
v 0.553182 0.842185 0.525612
v -0.516872 0.874312 0.535220
v -0.516867 0.874312 -0.535225
v -1.673062 -0.044307 0.718388
v -1.728984 -0.044307 0.570817
v -1.744925 0.157678 0.576858
v -1.689003 0.157678 0.724428
v 1.896134 -0.044307 -0.012281
v 1.892779 -0.044307 0.113407
v 1.910165 0.074176 0.113871
v 1.913519 0.074176 -0.011817
v 0.392935 -0.044307 1.399229
v 0.253134 -0.044307 1.431208
v 0.265076 0.057252 1.457407
v 0.404877 0.051337 1.425427
v -0.251947 -0.044307 -1.291748
v -0.014846 -0.044307 -1.316005
v -0.018816 0.174723 -1.354805
v -0.255916 0.174723 -1.330548
v 0.470556 6.357547 -0.325015
v 0.470553 6.357547 0.325017
v -0.179299 6.372858 0.325015
v -0.179296 6.372858 -0.325017
v 0.310209 8.733036 -0.168261
v 0.310207 8.733036 0.168263
v -0.026221 8.741064 0.168261
v -0.026219 8.741064 -0.168263
v 0.543589 1.971182 -0.499823
v 0.543585 1.971182 0.499827
v -0.455802 1.994089 0.499823
v -0.455798 1.994089 -0.499827
v 0.528232 3.758901 -0.443503
v 0.528228 3.758902 0.443507
v -0.358550 3.779228 0.443503
v -0.358546 3.779227 -0.443507
v -0.521987 -0.044307 0.441739
v -0.688580 -0.044307 0.009564
v -0.736067 0.438408 0.027559
v -0.569475 0.447497 0.457649
v 0.703642 -0.044307 -0.206547
v 0.691623 -0.044307 0.236885
v 0.753914 0.411426 0.230214
v 0.765934 0.399072 -0.204884
v 0.334418 -0.044307 0.487146
v -0.088062 -0.044307 0.583788
v -0.051972 0.380315 0.662959
v 0.370508 0.362440 0.566317
v -0.292911 -0.044307 -0.448536
v 0.196016 -0.044307 -0.498557
v 0.187830 0.434606 -0.578568
v -0.301097 0.434606 -0.528547
vt 0.486794 0.489765
vt 0.890271 0.958851
vt 0.358270 0.981837
vt 0.141273 0.975646
vt -0.000678 0.662247
vt 0.069142 0.170450
vt 0.861307 0.145980
vt 0.465751 -0.000001
vt 0.486794 0.489765
vt 0.890271 0.958851
vt 0.358270 0.981837
vt 0.141273 0.975646
vt -0.000678 0.662247
vt 0.069142 0.170450
vt 0.861307 0.145980
vt 0.465751 -0.000001
vt 0.486794 0.489765
vt 0.890271 0.958851
vt 0.358270 0.981837
vt 0.141273 0.975646
vt -0.000678 0.662247
vt 0.069142 0.170450
vt 0.861307 0.145980
vt 0.465751 -0.000001
vt 0.486794 0.489765
vt 0.890271 0.958851
vt 0.358270 0.981837
vt 0.141273 0.975646
vt -0.000678 0.662247
vt 0.069142 0.170450
vt 0.861307 0.145980
vt 0.465751 -0.000001
vt 0.486794 0.489765
vt 0.890271 0.958851
vt 0.358270 0.981837
vt 0.141273 0.975646
vt -0.000678 0.662247
vt 0.069142 0.170450
vt 0.861307 0.145980
vt 0.465751 -0.000001
vt 0.486794 0.489765
vt 0.890271 0.958851
vt 0.358270 0.981837
vt 0.141273 0.975646
vt -0.000678 0.662247
vt 0.069142 0.170450
vt 0.861307 0.145980
vt 0.465751 -0.000001
vt 0.009749 0.057781
vt 0.015667 0.058645
vt 0.012053 0.061363
vt 0.033500 0.075468
vt 0.039449 0.086244
vt 0.033418 0.084916
vt 0.065788 0.076254
vt 0.094472 0.067322
vt 0.069980 0.082413
vt 0.044454 0.103507
vt 0.040260 0.105980
vt 0.046752 0.097601
vt 0.026002 0.082788
vt 0.030555 0.080056
vt 0.043441 0.093756
vt 0.074882 0.081907
vt 0.104069 0.074647
vt 0.080166 0.090634
vt 0.063576 0.101371
vt 0.057621 0.091536
vt 0.028837 0.027001
vt 0.035626 0.016561
vt 0.034208 0.028389
vt 0.022181 0.067225
vt 0.018470 0.062687
vt 0.025880 0.064228
vt 0.106011 0.080545
vt 0.105169 0.084074
vt 0.103792 0.081953
vt 0.103102 0.083784
vt 0.103769 0.082048
vt 0.104422 0.082947
vt 0.017288 0.069662
vt 0.014689 0.065511
vt 0.083629 0.095253
vt 0.083170 0.097147
vt 0.082457 0.095996
vt 0.013621 0.054481
vt 0.030798 0.015932
vt 0.024458 0.021886
vt 0.026130 0.017199
vt 0.093455 0.090761
vt 0.094451 0.088060
vt 0.095322 0.089576
vt 0.122375 0.042302
vt 0.121632 0.050089
vt 0.114727 0.039948
vt 0.019009 0.054018
vt 0.039744 0.019785
vt 0.104184 0.084122
vt 0.104422 0.082947
vt 0.104885 0.083677
vt 0.031710 0.092623
vt 0.047165 0.107711
vt 0.053041 0.108055
vt 0.123645 0.035411
vt 0.126662 0.039222
vt 0.067084 0.069749
vt 0.087877 0.048147
vt 0.091511 0.054678
vt 0.075079 0.028370
vt 0.095350 0.007841
vt 0.097490 0.011062
vt 0.088751 0.058919
vt 0.111162 0.056732
vt 0.115359 0.039483
vt 0.125377 0.055175
vt 0.127382 0.058486
vt 0.036356 0.100539
vt 0.045611 0.096944
vt 0.036840 0.101251
vt 0.122637 0.032879
vt 0.123057 0.033634
vt 0.134868 0.052189
vt 0.134420 0.051450
vt 0.104507 0.004306
vt 0.104029 0.003587
vt 0.029603 0.047430
vt 0.104714 0.047261
vt 0.050128 0.079871
vt 0.044532 0.069829
vt 0.062118 0.060839
vt 0.046372 0.036992
vt 0.070949 0.022148
vt 0.035950 0.057003
vt 0.053023 0.023154
vt 0.052943 0.021358
vt 0.026463 0.079933
vt 0.024475 0.080968
vt 0.090872 0.088101
vt 0.079243 0.091430
vt 0.089660 0.086111
vt 0.089077 0.085191
vt 0.101594 0.081536
vt 0.091917 0.089668
vt 0.080905 0.094055
vt 0.068390 0.098316
vt 0.080132 0.092832
vt 0.003324 0.045189
vt 0.002323 0.046057
vt 0.112390 0.074312
vt 0.099654 0.078479
vt 0.111659 0.073145
vt 0.012458 0.015122
vt 0.012932 0.013793
vt 0.061353 0.104816
vt 0.071064 0.102530
vt 0.062238 0.106210
vt 0.093452 0.092242
vt 0.083629 0.095253
vt 0.092915 0.091241
vt 0.033353 0.005963
vt 0.103574 0.084808
vt 0.097123 0.092271
vt 0.094451 0.088060
vt 0.028231 0.036558
vt 0.106033 0.080531
vt 0.115583 0.079330
vt 0.109062 0.085304
vt 0.083976 0.098935
vt 0.074222 0.100544
vt 0.082629 0.096767
vt 0.069622 0.110078
vt 0.075086 0.101952
vt 0.076478 0.104100
vt 1.003265 0.597036
vt 1.003265 0.597036
vt 1.003265 0.597036
vt 1.003265 0.597036
vt 1.003265 0.597036
vt 1.003265 0.597036
vt 0.100196 0.068252
vt 0.107388 0.082666
vt 0.102415 0.082826
vt 0.084342 0.096404
vt 0.092583 0.089245
vt 0.125040 0.046656
vt 0.040009 0.025054
vt 0.103721 0.083392
vt 0.028865 0.087648
vt 0.113478 0.036101
vt 0.052004 0.045487
vt 0.082231 0.096139
vt 0.100611 0.080009
vt 0.071072 0.102542
vt 0.102414 0.082828
vt 0.068390 0.098316
vt 0.086174 0.099265
vt 0.034950 0.006171
vt 0.104292 0.085788
vt 0.030836 0.037231
vt 0.114114 0.077015
vt 0.077206 0.105247
vt 0.066630 0.105361
vn 0.024700 0.998100 0.056700
vn 0.535400 0.733500 -0.418700
vn -0.007900 0.701300 -0.712800
vn -0.415900 0.696800 -0.584400
vn -0.669100 0.701400 -0.245500
vn -0.621500 0.706500 0.338300
vn 0.487000 0.561400 0.669100
vn -0.016100 0.663800 0.747700
vn -0.021900 0.998600 0.047200
vn 0.663400 0.680200 0.311800
vn 0.689100 0.669200 -0.277900
vn 0.426600 0.696300 -0.577200
vn -0.084500 0.734600 -0.673100
vn -0.631400 0.659700 -0.407600
vn -0.457500 0.614500 0.642700
vn -0.740100 0.649600 0.173700
vn -0.026900 0.998800 -0.039400
vn -0.402900 0.733200 0.547700
vn 0.196900 0.692800 0.693700
vn 0.558700 0.686200 0.465700
vn 0.717600 0.692600 0.073600
vn 0.523100 0.705000 -0.478800
vn -0.634600 0.573400 -0.518100
vn -0.166900 0.672400 -0.721100
vn -0.012300 0.998300 -0.056100
vn -0.528400 0.726000 0.440100
vn -0.016300 0.703300 0.710700
vn 0.387500 0.698200 0.601900
vn 0.657500 0.696900 0.286500
vn 0.671200 0.690300 -0.270000
vn -0.451500 0.573400 -0.683600
vn 0.087700 0.675300 -0.732300
vn 0.056100 0.998200 -0.018800
vn -0.455300 0.734200 -0.503600
vn -0.675300 0.729900 0.105900
vn -0.516000 0.681300 0.519100
vn -0.193900 0.692700 0.694600
vn 0.395600 0.705000 0.588600
vn 0.606800 0.573400 -0.550400
vn 0.737900 0.672400 -0.057700
vn 0.024000 0.998800 0.041200
vn 0.440000 0.733200 -0.518400
vn -0.148300 0.692800 -0.705700
vn -0.525000 0.686200 -0.503400
vn -0.710700 0.692600 -0.123300
vn -0.555100 0.705000 0.441300
vn 0.597100 0.573400 0.560900
vn 0.116400 0.672400 0.731000
vn 0.244100 -0.792700 0.558500
vn 0.650200 0.131500 0.748200
vn 0.430900 -0.873100 0.228100
vn -0.678800 0.042300 -0.733100
vn 0.661900 0.060500 -0.747100
vn 0.402200 0.164800 -0.900600
vn -0.700900 0.086300 -0.707900
vn -0.704700 0.070500 0.706000
vn -0.700900 0.086300 0.707900
vn 0.772800 0.365500 -0.518800
vn 0.235500 -0.783400 -0.575100
vn -0.528500 -0.818000 -0.227100
vn -0.437700 0.132100 -0.889300
vn -0.699000 0.176200 -0.693100
vn 0.707100 0.037800 -0.706100
vn 0.708800 0.070000 0.702000
vn 0.707100 0.037800 0.706100
vn 0.707100 0.026800 0.706600
vn 0.707200 0.028300 -0.706400
vn 0.432000 -0.830000 -0.352600
vn -0.353300 -0.837600 0.416500
vn -0.489200 0.211100 0.846200
vn -0.303000 0.262200 0.916200
vn -0.676000 0.127400 0.725800
vn 0.455300 0.414800 -0.787700
vn -0.588800 -0.632900 -0.502700
vn -0.605400 0.414800 -0.679200
vn -0.321800 0.387400 0.863900
vn 0.620600 -0.675200 0.398700
vn 0.705200 0.332100 0.626300
vn -0.047200 -0.792700 0.607700
vn 0.703300 0.437900 0.559900
vn 0.580000 -0.623900 -0.523700
vn 0.733400 0.438200 -0.519700
vn 0.736600 0.364300 0.569800
vn -0.456600 0.473500 0.753200
vn -0.737200 -0.607700 -0.295400
vn -0.354100 -0.607200 0.711200
vn -0.864900 0.322300 -0.384900
vn 0.682700 0.098600 0.724000
vn -0.503200 0.684600 0.527300
vn 0.549300 0.649500 -0.525700
vn -0.503200 0.684600 -0.527300
vn -0.412000 -0.761000 -0.501100
vn 0.708800 0.070000 -0.701900
vn 0.696000 0.149000 0.702400
vn -0.699000 0.176200 0.693100
vn -0.704700 0.070500 -0.706000
vn -0.705200 0.060700 0.706400
vn 0.696000 0.149000 -0.702400
vn 0.549300 0.649500 0.525700
vn -0.705200 0.060700 -0.706400
vn -0.841500 0.474000 -0.259100
vn 0.549900 -0.623500 0.555700
vn -0.420700 -0.641100 0.641900
vn 0.474800 -0.632900 -0.611500
vn 0.699600 0.679500 0.220800
vn 0.146400 0.666800 0.730700
vn -0.724900 0.688200 -0.029400
vn -0.689300 0.693300 -0.210300
vn 0.137000 0.688200 -0.712500
vn 0.721100 0.688200 0.079700
usemtl PineTree
s 1
f 9/1/1 4/2/2 6/3/3
f 9/1/1 3/4/4 7/5/5
f 1/6/6 9/1/1 7/5/5
f 2/7/7 9/1/1 5/8/8
f 18/9/9 13/10/10 15/11/11
f 18/9/9 12/12/12 16/13/13
f 10/14/14 18/9/9 16/13/13
f 11/15/15 18/9/9 14/16/16
f 27/17/17 22/18/18 24/19/19
f 27/17/17 21/20/20 25/21/21
f 19/22/22 27/17/17 25/21/21
f 20/23/23 27/17/17 23/24/24
f 36/25/25 31/26/26 33/27/27
f 36/25/25 30/28/28 34/29/29
f 28/30/30 36/25/25 34/29/29
f 29/31/31 36/25/25 32/32/32
f 45/33/33 40/34/34 42/35/35
f 45/33/33 39/36/36 43/37/37
f 37/38/38 45/33/33 43/37/37
f 38/39/39 45/33/33 41/40/40
f 54/41/41 49/42/42 51/43/43
f 54/41/41 48/44/44 52/45/45
f 46/46/46 54/41/41 52/45/45
f 47/47/47 54/41/41 50/48/48
f 100/49/49 106/50/50 103/51/51
f 62/52/52 59/53/53 109/54/54
f 82/55/55 93/56/56 81/57/57
f 102/58/58 99/59/59 59/60/53
f 107/61/60 62/52/52 110/62/61
f 81/57/57 86/63/62 82/55/55
f 91/64/63 80/65/64 92/66/65
f 91/64/63 88/67/66 87/68/67
f 108/69/68 104/70/69 107/71/60
f 98/72/70 105/73/71 61/74/72
f 77/75/73 75/76/74 78/77/75
f 73/78/76 71/79/77 74/80/78
f 95/81/79 104/82/69 105/73/71
f 69/83/80 67/84/81 70/85/82
f 101/86/83 106/50/50 100/49/49
f 103/87/51 99/88/59 100/89/49
f 66/90/84 64/91/85 63/92/86
f 97/93/87 61/94/72 62/95/52
f 61/74/72 105/73/71 60/96/88
f 95/97/79 107/71/60 104/70/69
f 57/98/89 55/99/90 58/100/91
f 99/101/59 109/54/54 59/53/53
f 105/73/71 106/50/50 60/96/88
f 101/102/83 59/60/53 60/103/88
f 110/62/61 62/52/52 109/54/54
f 97/93/87 107/104/60 96/105/92
f 91/106/63 82/107/55 79/108/93
f 81/109/57 84/110/94 85/111/95
f 94/112/96 89/113/97 93/56/56
f 82/107/55 83/114/98 79/108/93
f 80/65/64 83/115/98 84/116/94
f 58/117/91 85/118/95 57/119/89
f 83/114/98 58/120/91 55/121/90
f 56/122/99 83/115/98 55/123/90
f 57/124/89 84/110/94 56/125/99
f 87/68/67 60/103/88 59/60/53
f 88/126/66 61/74/72 60/96/88
f 90/127/100 61/94/72 89/113/97
f 87/128/67 62/52/52 90/129/100
f 91/106/63 90/129/100 94/130/96
f 81/109/57 92/131/65 80/132/64
f 92/131/65 89/133/97 88/126/66
f 64/134/85 95/97/79 63/135/86
f 95/81/79 66/136/84 63/137/86
f 65/138/101 96/139/92 64/140/85
f 97/141/87 66/142/84 98/143/70
f 70/144/82 101/145/83 69/146/80
f 69/147/80 100/49/49 68/148/102
f 67/149/81 102/150/58 70/151/82
f 100/89/49 67/152/81 68/153/102
f 74/154/78 105/155/71 73/156/76
f 71/157/77 106/158/50 74/159/78
f 71/160/77 104/70/69 103/87/51
f 72/161/103 105/162/71 104/163/69
f 107/71/60 76/164/104 108/69/68
f 109/165/54 78/166/75 110/167/61
f 75/168/74 110/169/61 78/170/75
f 109/171/54 76/172/104 77/173/73
f 9/1/1 8/174/105 4/2/2
f 9/1/1 6/3/3 3/4/4
f 1/6/6 5/8/8 9/1/1
f 2/7/7 8/174/105 9/1/1
f 18/9/9 17/175/106 13/10/10
f 18/9/9 15/11/11 12/12/12
f 10/14/14 14/16/16 18/9/9
f 11/15/15 17/175/106 18/9/9
f 27/17/17 26/176/107 22/18/18
f 27/17/17 24/19/19 21/20/20
f 19/22/22 23/24/24 27/17/17
f 20/23/23 26/176/107 27/17/17
f 36/25/25 35/177/108 31/26/26
f 36/25/25 33/27/27 30/28/28
f 28/30/30 32/32/32 36/25/25
f 29/31/31 35/177/108 36/25/25
f 45/33/33 44/178/109 40/34/34
f 45/33/33 42/35/35 39/36/36
f 37/38/38 41/40/40 45/33/33
f 38/39/39 44/178/109 45/33/33
f 54/41/41 53/179/110 49/42/42
f 54/41/41 51/43/43 48/44/44
f 46/46/46 50/48/48 54/41/41
f 47/47/47 53/179/110 54/41/41
f 82/55/55 94/112/96 93/56/56
f 81/57/57 85/118/95 86/63/62
f 91/64/63 79/180/93 80/65/64
f 91/64/63 92/66/65 88/67/66
f 108/69/68 103/87/51 104/70/69
f 98/72/70 95/81/79 105/73/71
f 77/75/73 76/181/104 75/76/74
f 73/78/76 72/182/103 71/79/77
f 69/83/80 68/183/102 67/84/81
f 101/86/83 60/96/88 106/50/50
f 103/87/51 108/69/68 99/88/59
f 66/90/84 65/184/101 64/91/85
f 97/93/87 98/185/70 61/94/72
f 95/97/79 96/186/92 107/71/60
f 57/98/89 56/187/99 55/99/90
f 99/101/59 108/188/68 109/54/54
f 101/102/83 102/58/58 59/60/53
f 97/93/87 62/95/52 107/104/60
f 91/106/63 94/130/96 82/107/55
f 81/109/57 80/132/64 84/110/94
f 94/112/96 90/127/100 89/113/97
f 82/107/55 86/189/62 83/114/98
f 80/65/64 79/180/93 83/115/98
f 58/117/91 86/63/62 85/118/95
f 83/114/98 86/189/62 58/120/91
f 56/122/99 84/116/94 83/115/98
f 57/124/89 85/111/95 84/110/94
f 87/68/67 88/67/66 60/103/88
f 88/126/66 89/133/97 61/74/72
f 90/127/100 62/95/52 61/94/72
f 87/128/67 59/53/53 62/52/52
f 91/106/63 87/128/67 90/129/100
f 81/109/57 93/190/56 92/131/65
f 92/131/65 93/190/56 89/133/97
f 64/134/85 96/186/92 95/97/79
f 95/81/79 98/72/70 66/136/84
f 65/138/101 97/191/87 96/139/92
f 97/141/87 65/192/101 66/142/84
f 70/144/82 102/193/58 101/145/83
f 69/147/80 101/86/83 100/49/49
f 67/149/81 99/194/59 102/150/58
f 100/89/49 99/88/59 67/152/81
f 74/154/78 106/195/50 105/155/71
f 71/157/77 103/196/51 106/158/50
f 71/160/77 72/197/103 104/70/69
f 72/161/103 73/198/76 105/162/71
f 107/71/60 75/199/74 76/164/104
f 109/165/54 77/200/73 78/166/75
f 75/168/74 107/201/60 110/169/61
f 109/171/54 108/202/68 76/172/104
