# Blender v2.77 (sub 0) OBJ File: 'new girl.blend'
# www.blender.org
mtllib newgirl.mtl
o Cube_Cube.004
v 0.443819 7.457778 -0.905238
v 0.415980 8.024972 -0.835516
v 1.050521 7.433992 -0.093038
v 0.910868 7.357193 0.591450
v 0.744727 8.007298 -0.641726
v 1.090275 7.951152 -0.082647
v 0.392513 7.942083 1.104260
v 0.843414 7.881722 0.632411
v 0.418602 7.324820 1.179240
v 0.268945 6.177307 0.171877
v 0.460371 6.102997 0.733408
v 0.442051 8.922262 -0.105074
v 0.313407 5.621229 0.143587
v 0.418034 8.790434 0.572238
v 0.319196 5.621229 -0.334957
v 0.401557 8.642903 -0.681642
v 0.802520 7.469487 -0.683524
v 0.241355 6.343872 -0.325778
v 0.848358 8.694748 -0.085374
v 0.717411 8.619866 0.466972
v 0.753034 7.337199 0.964229
v 0.748902 7.858362 0.912859
v 0.841497 6.423381 0.563084
v 0.809157 6.524888 -0.040978
v 0.381881 8.509936 0.944807
v 0.425360 6.398281 1.011524
v 0.697268 6.664692 0.832531
v 0.596285 8.442379 0.825590
v 0.669385 6.729805 -0.523371
v 0.708506 8.538419 -0.561141
v 0.650307 8.193819 1.053627
v 0.090988 7.476276 1.292767
v 0.415181 8.166059 1.190879
v 0.008881 8.460011 1.107385
v 0.021707 8.242821 1.197522
v 0.314586 8.175612 1.142729
v 0.499376 7.527546 1.253393
v 0.348120 8.392801 1.053152
v 1.046200 8.238049 0.479846
v 0.925009 8.060561 0.843800
v 1.288707 7.190052 0.490163
v 1.167358 7.012565 0.867245
v 1.059441 5.917908 0.898849
v 1.208580 7.967575 -0.081016
v 1.077633 7.892694 0.471330
v 1.353328 7.214071 -0.079265
v 1.222380 7.139190 0.473081
v 1.109228 5.652055 0.388277
v 1.184001 8.015544 -0.081313
v 1.044148 7.859215 -0.557080
v 1.385386 7.248444 -0.078877
v 1.245534 7.092114 -0.554644
v 1.292260 6.397041 -0.317041
v 0.904621 7.418083 -0.768722
v 1.108115 7.361938 -0.211361
v 0.937068 6.131256 -0.342839
v 0.452754 8.079172 -0.934111
v 0.706305 8.016809 -0.796073
v 0.471719 7.537920 -1.005969
v 0.717901 7.513875 -0.858929
v 0.594238 6.614273 -0.843689
v 0.462708 7.419046 -0.986004
v 0.746554 7.401373 -0.792757
v 0.580760 6.671115 -0.772183
v 0.037865 8.125868 -0.966028
v 0.404247 8.125147 -0.903955
v 0.099606 7.594020 -1.099295
v 0.450001 7.525418 -1.037416
v 0.253722 6.505627 -1.068611
v 0.417617 7.484218 -0.970834
v 0.416915 7.093410 -0.912840
v 0.212900 6.255620 -0.823620
v 1.139558 7.559969 -0.082050
v 0.967093 7.490539 0.586921
v 1.160864 7.053730 -0.081793
v 0.988399 6.984301 0.587179
v 0.883112 5.856342 0.250376
v 0.935486 7.651627 0.638213
v 0.886066 7.628266 0.932053
v 0.981866 7.421530 0.624710
v 0.932277 7.398170 0.932612
v 0.974079 6.980512 0.587005
v 0.924035 6.957152 0.932512
v 0.755097 6.163495 0.757412
v 0.702330 5.366527 -0.337471
v 0.710339 5.373624 0.180495
v 0.836624 1.871497 -0.281713
v 0.816942 1.987863 0.425306
v 0.486011 1.882129 -0.580101
v 0.491758 5.117369 -0.509902
v 0.542318 5.494524 0.115192
v 0.516571 2.023809 0.672181
v 0.474117 5.124663 0.388474
v 0.534049 5.507113 -0.228740
v 0.641505 3.765689 -0.448575
v 0.655146 4.478395 -0.361524
v 0.981848 4.686893 0.217655
v 0.622620 3.782772 0.220568
v 0.483997 3.795247 0.479197
v 0.451489 4.494049 0.490740
v 0.480764 4.488331 -0.569056
v 0.451359 3.770642 -0.627204
v 1.161720 4.470260 -0.320342
v 0.882471 4.296846 -0.263522
v 0.988164 4.211844 0.073610
v 1.300209 4.405624 0.010117
v 0.650397 3.028003 0.232620
v 0.405748 2.896140 -0.597254
v 0.648078 2.892700 -0.419901
v 0.447427 3.019192 0.486974
v 0.422801 2.129960 -0.217787
v 0.133290 2.169961 -0.172421
v 0.417618 2.256349 0.357901
v 0.590591 2.218575 0.243255
v 0.153618 2.254148 0.271458
v 0.563951 2.135250 -0.122140
v 0.311111 0.429079 0.770862
v 0.300457 0.329463 0.492768
v 0.493792 0.311168 0.450399
v 0.486759 0.439192 0.805697
v 0.601483 0.401178 0.733933
v 0.586525 0.315467 0.506616
v 0.294652 -0.002562 0.801893
v 0.290958 -0.002151 0.503698
v 0.484921 -0.013018 0.461592
v 0.468734 -0.012367 0.843325
v 0.586175 -0.018912 0.767423
v 0.576789 -0.018218 0.520322
v 1.519763 3.972532 -0.399493
v 1.147536 3.741378 -0.323754
v 1.234139 3.718217 0.133968
v 1.650081 3.976519 0.049334
v 1.660522 3.862514 -0.487004
v 1.159326 3.551269 -0.385023
v 1.275934 3.520083 0.231291
v 1.835992 3.867882 0.117333
v 1.645506 3.721680 -0.353050
v 1.329713 3.525571 -0.288794
v 1.403185 3.505921 0.099532
v 1.756066 3.725062 0.027730
v 1.898239 3.206521 -0.225024
v 1.723201 3.080245 -0.178216
v 1.773468 3.072928 0.047651
v 1.969063 3.214034 -0.004655
v 1.129171 5.914157 0.403224
v 0.443548 5.537870 0.145665
v 1.153626 5.936161 0.303239
v 0.430457 5.558700 -0.304397
v 2.107393 3.034089 -0.203477
v 1.847522 2.855460 -0.168631
v 1.847225 2.850641 0.022500
v 2.139749 3.051786 0.009557
v 2.250995 3.184144 -0.072504
v 2.213431 3.164209 0.034395
v 2.266525 3.037786 -0.058016
v 2.229257 3.020504 0.055085
v 2.198504 2.838818 -0.039161
v 2.155047 2.796341 -0.184530
v 2.016604 2.705053 -0.165621
v 2.153142 2.807950 0.073005
v 2.214236 2.613128 0.038953
v 2.127833 2.559930 -0.042132
v 2.042114 2.607462 -0.071001
v 2.150939 2.675042 0.080536
v 0.514420 0.085058 0.998251
v 0.630926 0.078515 0.999661
v 0.339862 0.094865 0.996140
v 0.502392 -0.014363 0.998106
v 0.618897 -0.020908 0.999515
v 0.327834 -0.004557 0.995994
v 0.011890 7.445967 -0.982843
v -0.421791 7.457778 -0.915709
v 0.010989 8.031848 -0.908380
v -0.395646 8.024972 -0.845335
v -1.047962 7.433992 -0.118425
v -0.924910 7.357193 0.569242
v -0.728985 8.007298 -0.659554
v -1.087957 7.951152 -0.108998
v -0.419112 7.942083 1.094442
v -0.015162 7.283458 1.253291
v -0.858466 7.881722 0.611823
v -0.447008 7.324820 1.168769
v -0.014170 7.919158 1.171286
v -0.002186 6.095245 0.180728
v -0.273024 6.177307 0.165320
v -0.010119 5.890183 0.836469
v -0.477978 6.102997 0.722056
v 0.001514 9.008646 -0.125143
v -0.439380 8.922262 -0.115738
v -0.316789 5.621229 0.135963
v -0.007295 8.866987 0.603052
v -0.431755 8.790434 0.561958
v -0.311000 5.621229 -0.342581
v 0.009001 8.711505 -0.744031
v -0.384950 8.642903 -0.691156
v -0.785750 7.469487 -0.702738
v 0.004766 5.631091 -0.393949
v -0.233403 6.343872 -0.331522
v 0.004414 6.270475 -0.364902
v -0.846045 8.694748 -0.105872
v -0.002268 5.564397 0.187476
v -0.728498 8.619866 0.449481
v -0.776140 7.337199 0.945730
v -0.770766 7.858362 0.894475
v -0.854873 6.423381 0.542562
v -0.807929 6.524888 -0.060541
v -0.404626 8.509936 0.935292
v -0.012078 8.577146 0.998378
v -0.013570 6.265386 1.121743
v -0.449706 6.398281 1.000938
v -0.717204 6.664692 0.815420
v -0.616083 8.442379 0.810924
v -0.656528 6.729805 -0.539411
v -0.694724 8.538419 -0.578116
v -0.675606 8.193819 1.037587
v -0.122235 7.476276 1.290188
v -0.443869 8.166059 1.180487
v -0.035668 8.460011 1.106846
v -0.050671 8.242821 1.196646
v -0.342139 8.175612 1.134784
v -0.529552 7.527546 1.240946
v -0.373496 8.392801 1.044422
v -0.940880 8.235434 0.503984
v -0.838385 8.050154 0.870929
v -1.222233 7.201213 0.501912
v -1.120009 7.015868 0.881984
v -1.053896 5.916466 0.912406
v -1.206267 7.967575 -0.110230
v -1.088720 7.892694 0.445123
v -1.351014 7.214071 -0.111981
v -1.233467 7.139190 0.443372
v -1.118297 5.652055 0.361330
v -1.181687 8.015544 -0.109932
v -1.030366 7.859215 -0.582177
v -1.383072 7.248444 -0.112369
v -1.231752 7.092114 -0.584613
v -1.284213 6.397041 -0.348210
v -0.885760 7.418083 -0.790381
v -1.102678 7.361938 -0.238106
v -0.928500 6.131256 -0.365408
v -0.430024 8.079172 -0.944790
v -0.686841 8.016809 -0.812927
v -0.447245 7.537920 -1.017086
v -0.696912 7.513875 -0.876045
v -0.573654 6.614273 -0.857818
v -0.438720 7.419046 -0.996909
v -0.727158 7.401373 -0.810585
v -0.561909 6.671115 -0.786007
v -0.014484 8.125868 -0.966661
v -0.382261 8.125147 -0.913470
v -0.072984 7.594020 -1.101383
v -0.424772 7.525418 -1.047999
v -0.227797 6.505627 -1.074436
v 0.012626 7.491094 -1.043698
v -0.394009 7.484218 -0.980653
v 0.011925 7.100286 -0.985704
v -0.394710 7.093410 -0.922659
v -0.192913 6.255620 -0.828529
v -1.137240 7.559969 -0.109594
v -0.981009 7.490539 0.563354
v -1.158545 7.053730 -0.109852
v -1.002314 6.984301 0.563096
v -0.888910 5.856342 0.228939
v -0.950651 7.651627 0.615396
v -0.908355 7.628266 0.910345
v -0.996691 7.421530 0.600775
v -0.954565 7.398170 0.909786
v -0.987995 6.980512 0.563269
v -0.946323 6.957152 0.909886
v -0.773199 6.163495 0.738924
v -0.702832 5.372143 -0.347644
v 0.006848 5.146757 -0.566068
v -0.006177 5.153347 0.510593
v -0.700817 5.364946 0.182494
v -0.850281 2.045345 -0.683596
v -0.008950 1.986160 -0.767847
v 0.012386 1.961995 0.622925
v -0.804731 1.880994 0.010404
v -0.506895 2.078567 -0.869594
v -0.488833 5.123415 -0.524930
v -0.544947 5.494524 0.102039
v -0.495018 1.871354 0.401402
v -0.469429 5.115747 0.348694
v -0.528359 5.507113 -0.241593
v 0.060971 4.574766 0.534046
v -0.007292 3.821825 0.602804
v -0.634120 3.789719 -0.408686
v -0.779051 4.561176 -0.377189
v -0.669169 4.485925 -0.122661
v -0.626313 3.765051 0.251812
v 0.007218 3.814795 -0.652111
v 0.007468 4.516606 -0.617330
v -0.493676 3.777433 0.492664
v -0.463229 4.494049 0.479675
v -0.466857 4.488331 -0.580520
v -0.440214 3.800157 -0.593355
v -0.954357 4.343981 0.189268
v -1.235108 4.524063 0.183833
v -1.310607 4.415007 -0.155497
v -0.999388 4.215345 -0.148349
v -0.005984 3.016907 0.601471
v -0.640668 2.901320 0.217912
v -0.419799 3.097623 -0.600135
v -0.659781 3.076455 -0.423639
v -0.000511 3.020273 -0.643603
v -0.449949 2.943267 0.474004
v -0.435305 2.311470 -0.608107
v -0.142866 2.302511 -0.522359
v -0.407779 2.153558 -0.074499
v -0.585288 2.176486 -0.186101
v -0.146048 2.191924 -0.100865
v -0.573097 2.283755 -0.537687
v -0.301696 0.372880 -0.637328
v -0.298584 0.382859 -0.943653
v -0.492118 0.374191 -0.988967
v -0.475607 0.354479 -0.598304
v -0.593947 0.357076 -0.676778
v -0.584512 0.364634 -0.931652
v -0.296754 0.008194 -0.666129
v -0.285848 0.008636 -0.964155
v -0.478735 -0.002262 -1.010934
v -0.471787 -0.001612 -0.628921
v -0.587358 -0.008156 -0.707642
v -0.571997 -0.007462 -0.954443
v -1.239325 3.801243 0.269385
v -1.613556 4.041286 0.262141
v -1.660660 3.986378 -0.198632
v -1.242478 3.718143 -0.190538
v -1.266806 3.620856 0.348635
v -1.770700 3.944069 0.338882
v -1.834124 3.870137 -0.281541
v -1.271051 3.508965 -0.270642
v -1.417793 3.583091 0.231248
v -1.735285 3.786741 0.225102
v -1.775248 3.740158 -0.165813
v -1.420467 3.512590 -0.158946
v -1.791086 3.142377 0.121351
v -1.984365 3.248462 0.108521
v -1.989972 3.209620 -0.124849
v -1.784775 3.097832 -0.105828
v -1.138595 5.914157 0.375789
v -0.446942 5.537870 0.134892
v -0.004240 5.402588 0.350512
v -1.160624 5.936161 0.275242
v 0.005733 5.488822 -0.473889
v -0.422968 5.558700 -0.314722
v -1.878391 2.892582 0.124641
v -2.162925 3.057658 0.000002
v -1.986753 2.939774 -0.239572
v -1.834747 2.859001 -0.065023
v -1.670621 2.818326 -0.014578
v -1.701960 2.840366 -0.119251
v -1.798824 2.743057 -0.001426
v -1.814655 2.757680 -0.100132
v -2.088346 2.770035 0.076940
v -2.187016 2.819731 -0.219077
v -2.028866 2.715822 -0.239451
v -1.993274 2.706067 -0.002882
v -2.139343 2.565608 -0.034180
v -2.151778 2.576582 -0.173923
v -2.051452 2.615155 -0.182655
v -2.053667 2.612718 -0.053027
v -0.521208 0.095814 -0.475145
v -0.637714 0.089271 -0.476555
v -0.346650 0.105621 -0.473034
v -0.509180 -0.003607 -0.475000
v -0.625685 -0.010152 -0.476409
v -0.334622 0.006199 -0.472888
v 0.409431 7.482131 -0.796499
v 0.376290 7.993324 -0.729957
v 0.936402 7.448989 -0.077430
v 0.800070 7.365915 0.558353
v 0.661676 7.978354 -0.564678
v 0.976949 7.923950 -0.074901
v 0.353792 7.910744 0.998276
v 0.737187 7.847903 0.595889
v 0.374853 7.327635 1.071975
v 0.190918 6.279020 0.166013
v 0.402246 6.217010 0.703886
v 0.406719 8.791649 -0.093450
v 0.255244 5.540367 0.069920
v 0.380576 8.669469 0.531084
v 0.254815 5.557131 -0.255085
v 0.364235 8.565256 -0.593457
v 0.722492 7.489740 -0.601482
v 0.184295 6.410491 -0.241892
v 0.755942 8.612081 -0.077562
v 0.634011 8.536596 0.427286
v 0.665882 7.341493 0.887963
v 0.657788 7.821273 0.848423
v 0.746959 6.498814 0.541373
v 0.721353 6.609303 -0.014789
v 0.343473 8.425426 0.861689
v 0.371651 6.453317 0.919862
v 0.611840 6.700388 0.760225
v 0.525579 8.367396 0.758830
v 0.605653 6.804240 -0.449531
v 0.634137 8.470777 -0.492840
v 0.598041 8.124670 0.968082
v 0.066419 7.453485 1.181165
v 0.361092 8.109765 1.099983
v -0.016655 8.378323 1.017590
v -0.004048 8.199709 1.090517
v 0.288865 8.133249 1.035504
v 0.443388 7.503303 1.154018
v 0.322597 8.310942 0.963468
v 0.959185 8.171118 0.427968
v 0.834109 8.000092 0.792992
v 1.181887 7.169958 0.448570
v 1.057716 7.007615 0.830013
v 0.948436 5.932143 0.867857
v 1.104588 7.917847 -0.110427
v 0.973460 7.843499 0.441927
v 1.241311 7.201710 -0.107002
v 1.109942 7.132114 0.445749
v 0.996786 5.666218 0.362975
v 1.085316 7.962566 -0.040017
v 0.944632 7.808236 -0.516003
v 1.277391 7.225172 -0.041736
v 1.136328 7.075207 -0.518621
v 1.180869 6.401760 -0.285394
v 0.798626 7.403486 -0.723557
v 1.001847 7.349231 -0.166433
v 0.829235 6.146366 -0.302396
v 0.395991 8.037332 -0.839417
v 0.649369 7.976391 -0.701045
v 0.412722 7.532566 -0.906347
v 0.658910 7.510289 -0.759247
v 0.535824 6.628032 -0.744298
v 0.399232 7.409013 -0.889439
v 0.683021 7.392337 -0.696161
v 0.517294 6.695312 -0.677401
v 0.016729 8.076181 -0.860029
v 0.383103 8.075617 -0.797906
v 0.078452 7.570715 -0.987072
v 0.429008 7.506735 -0.924554
v 0.233645 6.506153 -0.954497
v 0.397044 7.476520 -0.856991
v 0.396982 7.117156 -0.800458
v 0.192971 6.279446 -0.711251
v 1.029471 7.540658 -0.114336
v 0.856960 7.471477 0.554687
v 1.048676 7.060309 -0.110232
v 0.876276 6.993127 0.558921
v 0.772465 5.882235 0.223749
v 0.830557 7.600778 0.613925
v 0.781042 7.577666 0.907817
v 0.868058 7.408406 0.605970
v 0.818461 7.385131 0.913879
v 0.860475 6.999797 0.570994
v 0.810560 6.977624 0.916605
v 0.644569 6.201266 0.743206
v 0.643812 5.280396 -0.271890
v 0.648516 5.287529 0.124173
v 0.764188 1.974183 -0.265326
v 0.743577 2.086011 0.389160
v 0.457082 1.992820 -0.525548
v 0.448469 5.087243 -0.407200
v 0.499734 5.375638 0.074754
v 0.470771 2.115753 0.599669
v 0.424655 5.082641 0.289822
v 0.489653 5.387368 -0.192233
v 0.535177 3.766264 -0.402713
v 0.577969 4.508531 -0.278892
v 0.893434 4.710527 0.222785
v 0.512240 3.782589 0.185437
v 0.416851 3.794605 0.384915
v 0.391203 4.486149 0.392014
v 0.430021 4.481142 -0.465067
v 0.403357 3.770075 -0.522019
v 1.124095 4.422392 -0.215123
v 0.970282 4.327418 -0.185531
v 1.034607 4.278678 -0.016750
v 1.196777 4.379106 -0.047637
v 0.541046 3.008225 0.199261
v 0.365196 2.903510 -0.490027
v 0.545115 2.889524 -0.366405
v 0.385230 3.005012 0.390689
v 0.433664 2.265161 -0.215731
v 0.122041 2.305087 -0.178007
v 0.429051 2.371314 0.287907
v 0.579568 2.345494 0.192581
v 0.143043 2.378462 0.218887
v 0.552231 2.271233 -0.133281
v 0.406855 0.393056 0.715563
v 0.391851 0.346602 0.561127
v 0.474009 0.333988 0.561056
v 0.466933 0.352595 0.724644
v 0.492114 0.372859 0.706377
v 0.486263 0.328831 0.562571
v 0.382144 0.087232 0.793015
v 0.367363 0.074792 0.562078
v 0.472512 0.074677 0.550152
v 0.474193 0.125391 0.843391
v 0.510580 0.085150 0.775611
v 0.501052 0.071066 0.565729
v 1.507242 3.887583 -0.304542
v 1.254722 3.729931 -0.254829
v 1.309234 3.714087 0.045794
v 1.598449 3.892078 -0.010919
v 1.601736 3.839793 -0.387752
v 1.232121 3.610321 -0.314193
v 1.314541 3.585642 0.135027
v 1.735183 3.846363 0.051190
v 1.565328 3.770875 -0.282383
v 1.338656 3.632095 -0.239010
v 1.387631 3.617497 0.029019
v 1.644375 3.777655 -0.020974
v 1.876775 3.165704 -0.110977
v 1.806774 3.120845 -0.102530
v 1.816734 3.112804 -0.057223
v 1.912027 3.161777 -0.093851
v 1.016729 5.928320 0.377922
v 0.405047 5.425268 0.090961
v 1.041184 5.950324 0.277937
v 0.385491 5.454006 -0.243846
v 2.069937 3.021366 -0.105026
v 1.912043 2.886480 -0.100561
v 1.907562 2.890759 -0.042992
v 2.110872 3.114386 -0.085125
v 2.189852 3.100323 -0.040331
v 2.172050 3.109379 -0.044719
v 2.168967 3.103268 -0.036119
v 2.170992 3.104562 -0.021228
v 2.116609 2.848285 -0.022819
v 2.080409 2.815618 -0.115118
v 2.070182 2.769381 -0.099782
v 2.118984 2.818598 0.001502
v 2.134840 2.706565 0.015236
v 2.089951 2.677134 -0.028768
v 2.100505 2.683250 -0.062286
v 2.144014 2.715468 0.005683
v 0.508386 0.029909 0.892224
v 0.544580 0.040664 0.929246
v 0.402458 0.050633 0.905997
v 0.507244 0.083048 0.916229
v 0.551836 0.061887 0.935572
v 0.393057 0.072480 0.925415
v 0.010518 7.474348 -0.869464
v -0.390043 7.482131 -0.806170
v 0.009629 7.998724 -0.795913
v -0.358522 7.993324 -0.738846
v -0.934255 7.448989 -0.100060
v -0.813343 7.365915 0.538834
v -0.647822 7.978354 -0.580520
v -0.974851 7.923950 -0.098512
v -0.377838 7.910744 0.989425
v -0.013760 7.286400 1.137459
v -0.751387 7.847903 0.577881
v -0.400676 7.327635 1.062593
v -0.012804 7.887907 1.058441
v -0.001252 6.198006 0.103462
v -0.194878 6.279020 0.161346
v -0.009692 6.021520 0.801121
v -0.419156 6.217010 0.693949
v 0.001351 8.871662 -0.111714
v -0.404340 8.791649 -0.103262
v -0.256861 5.540367 0.063725
v -0.006793 8.738254 0.561494
v -0.393312 8.669469 0.521722
v -0.248570 5.557131 -0.261174
v 0.007873 8.629612 -0.650811
v -0.349772 8.565256 -0.602094
v -0.707730 7.489740 -0.618784
v 0.003405 5.597937 -0.281486
v -0.178389 6.410491 -0.246280
v 0.003048 6.301284 -0.251973
v -0.753845 8.612081 -0.095827
v -0.000976 5.510969 0.080664
v -0.642353 8.538818 0.412506
v -0.687169 7.341493 0.871594
v -0.678120 7.821273 0.832262
v -0.759837 6.498814 0.523144
v -0.720784 6.609303 -0.032235
v -0.364219 8.425426 0.853128
v -0.011024 8.486282 0.911222
v -0.012334 6.330330 1.019535
v -0.393792 6.453317 0.910602
v -0.630052 6.700388 0.745201
v -0.541601 8.369703 0.746507
v -0.594601 6.804240 -0.464051
v -0.622028 8.470777 -0.508036
v -0.621285 8.124670 0.953331
v -0.094974 7.453485 1.179212
v -0.387596 8.109765 1.090926
v -0.007967 8.378323 1.017696
v -0.022334 8.199709 1.090296
v -0.313831 8.133249 1.028213
v -0.471175 7.503303 1.142954
v -0.345811 8.310942 0.955382
v -0.849167 8.173423 0.456032
v -0.742738 7.995110 0.824695
v -1.114957 7.175686 0.463737
v -1.009495 7.005303 0.848321
v -0.941518 5.924968 0.885110
v -1.101593 7.917847 -0.137117
v -0.983865 7.843499 0.418248
v -1.238359 7.201710 -0.137000
v -1.120400 7.132114 0.418768
v -1.005276 5.666218 0.338756
v -1.084030 7.962566 -0.066261
v -0.931873 7.808236 -0.538704
v -1.276007 7.225172 -0.072626
v -1.123450 7.075207 -0.545958
v -1.173620 6.401760 -0.313878
v -0.780888 7.403486 -0.742665
v -0.997528 7.349231 -0.190620
v -0.821676 6.146366 -0.322368
v -0.375569 8.037332 -0.848751
v -0.632220 7.976391 -0.716549
v -0.390675 7.532566 -0.916067
v -0.640350 7.510289 -0.774965
v -0.517661 6.628032 -0.757042
v -0.377598 7.409013 -0.898837
v -0.665980 7.392337 -0.712481
v -0.500756 6.695312 -0.689717
v 0.004081 8.076181 -0.860182
v -0.363689 8.075617 -0.806941
v -0.054550 7.570715 -0.988681
v -0.406516 7.506735 -0.934662
v -0.210486 6.506153 -0.959870
v 0.011227 7.483106 -0.928035
v -0.376196 7.476520 -0.866345
v 0.010544 7.124341 -0.871622
v -0.377502 7.117156 -0.809827
v -0.175708 6.279446 -0.715711
v -1.026404 7.540658 -0.139207
v -0.870127 7.471477 0.533794
v -1.045702 7.060309 -0.135568
v -0.889540 6.993127 0.537559
v -0.777652 5.882235 0.204996
v -0.845166 7.600778 0.593653
v -0.802774 7.577666 0.888657
v -0.882463 7.408406 0.584793
v -0.840330 7.385131 0.893811
v -0.874036 6.999797 0.550011
v -0.832497 6.977624 0.896728
v -0.662359 6.201266 0.727396
v -0.643799 5.284671 -0.283915
v 0.005503 5.107883 -0.454906
v -0.004888 5.099191 0.404042
v -0.640538 5.280688 0.119462
v -0.776682 2.134320 -0.631489
v -0.007968 2.088219 -0.694101
v 0.011112 2.062553 0.549825
v -0.732102 1.985981 0.012473
v -0.475717 2.169334 -0.786943
v -0.445805 5.091872 -0.422385
v -0.501397 5.375638 0.062643
v -0.451293 1.978963 0.353708
v -0.424695 5.078162 0.252840
v -0.484860 5.387368 -0.204022
v 0.051814 4.562438 0.432100
v -0.005891 3.822426 0.486947
v -0.528545 3.787170 -0.361236
v -0.696233 4.586279 -0.325164
v -0.654009 4.555841 -0.187356
v -0.515341 3.766837 0.218714
v 0.005950 3.810398 -0.536457
v 0.006071 4.505692 -0.501834
v -0.424623 3.779776 0.399889
v -0.400572 4.486149 0.382435
v -0.418645 4.481142 -0.475333
v -0.394072 3.793828 -0.487672
v -1.027534 4.364671 0.094426
v -1.181453 4.463974 0.093067
v -1.220067 4.396486 -0.078084
v -1.058752 4.292683 -0.076018
v -0.004815 3.010848 0.485979
v -0.532465 2.898965 0.176184
v -0.376335 3.066773 -0.498577
v -0.555133 3.049698 -0.381162
v -0.000296 3.010866 -0.529834
v -0.387072 2.942940 0.377445
v -0.444952 2.429771 -0.542533
v -0.130862 2.427432 -0.470835
v -0.420811 2.287989 -0.076863
v -0.575045 2.311811 -0.166604
v -0.136541 2.326807 -0.093751
v -0.560602 2.407579 -0.480651
v -0.399428 0.365591 -0.699996
v -0.389372 0.380576 -0.872126
v -0.471494 0.367293 -0.875891
v -0.459206 0.317631 -0.711460
v -0.485595 0.344840 -0.717175
v -0.483759 0.362566 -0.874814
v -0.384005 0.097988 -0.677122
v -0.363642 0.085577 -0.907636
v -0.468472 0.085432 -0.922099
v -0.477247 0.136147 -0.628987
v -0.511984 0.095905 -0.697627
v -0.497381 0.081822 -0.907217
v -1.333796 3.782595 0.185026
v -1.588196 3.944960 0.181837
v -1.620696 3.910751 -0.120438
v -1.331662 3.723697 -0.116769
v -1.325511 3.671010 0.259972
v -1.696836 3.909276 0.254402
v -1.745894 3.856859 -0.197313
v -1.323677 3.585505 -0.190812
v -1.417077 3.681514 0.166789
v -1.642813 3.828351 0.164910
v -1.672055 3.797312 -0.104595
v -1.413593 3.632215 -0.101886
v -1.852355 3.152227 0.015133
v -1.923183 3.196352 0.019626
v -1.929232 3.185153 -0.031404
v -1.843400 3.120078 -0.005788
v -1.025574 5.928320 0.353215
v -0.407130 5.425268 0.081136
v -0.003142 5.316927 0.259714
v -1.047603 5.950324 0.252668
v 0.004476 5.427725 -0.370022
v -0.379480 5.454006 -0.253101
v -1.903961 2.918264 0.021242
v -2.095022 3.004009 -0.035223
v -2.015541 2.960145 -0.155083
v -1.806018 2.923084 0.031616
v -1.775408 2.839021 -0.048096
v -1.773088 2.857937 -0.038265
v -1.780992 2.858650 -0.030401
v -1.776053 2.855312 -0.024243
v -2.054159 2.809466 0.003600
v -2.097350 2.828464 -0.158914
v -2.078158 2.776349 -0.154473
v -2.047496 2.773705 -0.015931
v -2.094353 2.681159 -0.056554
v -2.093490 2.680566 -0.128949
v -2.111444 2.691589 -0.126791
v -2.104060 2.690495 -0.043117
v -0.512611 0.040664 -0.580996
v -0.549690 0.051420 -0.544860
v -0.407047 0.061389 -0.564664
v -0.512050 0.093804 -0.556970
v -0.557096 0.072643 -0.538712
v -0.398119 0.083235 -0.545025
vn 0.326500 -0.141500 -0.934500
vn 0.695300 0.154100 -0.702000
vn 0.739500 -0.083500 -0.667900
vn 0.341400 0.194600 -0.919500
vn 0.681800 0.353900 -0.640200
vn 0.345000 0.931800 -0.113200
vn 0.757300 0.561100 0.334300
vn 0.820200 0.568900 -0.059000
vn 0.991100 0.091900 -0.095600
vn 0.931300 0.186800 0.312700
vn 0.985800 -0.143000 -0.088100
vn 0.523500 -0.491400 -0.696000
vn 0.493400 -0.455000 -0.741300
vn 0.011900 -0.186500 -0.982400
vn 0.011900 -0.180600 -0.983500
vn 0.320500 0.512000 -0.796900
vn 0.001600 0.991100 -0.133100
vn 0.368200 0.841500 0.395100
vn -0.004900 0.913200 0.407500
vn 0.349700 0.509700 0.786100
vn 0.692400 0.381400 0.612500
vn 0.010200 0.536800 -0.843600
vn 0.011800 0.204500 -0.978800
vn 0.652100 0.214300 0.727200
vn -0.009900 0.572400 0.819900
vn 0.795500 0.227100 0.561700
vn 0.926800 0.171300 0.334100
vn -0.506100 0.189900 0.841300
vn 0.813700 -0.013200 0.581100
vn 0.026100 -0.732900 0.679800
vn -0.290900 0.308300 0.905700
vn 0.231800 -0.725200 0.648300
vn 0.844200 0.457400 -0.279400
vn 0.372300 0.178000 0.910900
vn 0.911900 -0.008100 -0.410400
vn 0.822400 0.295400 -0.486200
vn 0.497500 0.026300 0.867000
vn 0.389000 -0.875000 0.288100
vn 0.515000 0.176200 0.838800
vn 0.853600 -0.042800 -0.519100
vn 0.529200 -0.088000 0.843900
vn 0.415400 -0.884900 0.210600
vn 0.813700 -0.282100 -0.508300
vn 0.848700 0.345700 0.400200
vn 0.413000 0.153400 -0.897700
vn 0.893900 0.031800 0.447200
vn 0.472200 -0.072900 -0.878400
vn 0.938400 -0.045300 0.342500
vn 0.408000 0.023300 -0.912700
vn 0.499900 -0.856600 -0.128100
vn -0.245400 0.258200 -0.934400
vn 0.441200 -0.892200 -0.096200
vn 0.949200 0.099600 -0.298500
vn -0.247400 -0.034800 -0.968300
vn 0.965800 -0.062000 -0.251800
vn -0.182900 -0.023400 -0.982800
vn 0.962500 -0.041200 -0.268100
vn 0.263300 -0.890300 -0.371400
vn 0.254400 -0.920300 -0.297100
vn -0.570900 0.221800 -0.790500
vn 0.797300 0.229900 -0.558100
vn -0.531800 0.031300 -0.846200
vn 0.824500 0.021100 -0.565400
vn 0.073300 -0.843800 -0.531500
vn 0.781700 0.029900 -0.622900
vn 0.012100 0.050000 -0.998700
vn 0.011700 -0.261500 -0.965100
vn 0.536400 0.027800 0.843500
vn 0.834900 -0.170500 -0.523300
vn 0.085600 -0.921000 -0.380100
vn 0.842400 -0.139700 -0.520400
vn 0.860500 0.104100 -0.498600
vn 0.812800 0.280900 -0.510400
vn 0.500200 -0.133800 0.855500
vn 0.361900 -0.925700 0.109700
vn 0.549700 0.237800 0.800700
vn 0.825700 0.112300 -0.552800
vn 0.608800 0.057400 0.791300
vn 0.774900 -0.140600 -0.616200
vn 0.591900 -0.154200 0.791100
vn 0.287700 -0.956100 0.055900
vn -0.023200 -0.944800 0.326700
vn -0.787700 0.214900 0.577300
vn 0.222200 0.380600 0.897600
vn 0.084200 -0.995800 -0.034800
vn 0.172500 -0.188500 -0.966800
vn -0.095400 -0.986300 -0.134600
vn 0.055800 -0.956000 0.287900
vn 0.876900 -0.098800 -0.470400
vn 0.919700 0.167600 0.355000
vn -0.817000 -0.128500 -0.562100
vn 0.138400 -0.980100 -0.141900
vn 0.126700 -0.956300 0.263400
vn 0.555600 0.003800 0.831400
vn -0.303800 -0.141500 -0.942100
vn -0.678100 0.154100 -0.718600
vn -0.319100 0.194600 -0.927500
vn -0.666100 0.353900 -0.656500
vn -0.301200 0.512000 -0.804400
vn -0.342100 0.931800 -0.121500
vn -0.791600 0.515700 0.327700
vn -0.377700 0.841500 0.386100
vn -0.988600 0.091900 -0.119500
vn -0.818600 0.568900 -0.078800
vn -0.723100 -0.083500 -0.685600
vn -0.983300 -0.143000 -0.111900
vn -0.506500 -0.491400 -0.708500
vn -0.779900 -0.567300 -0.264200
vn -0.475300 -0.455000 -0.753000
vn -0.368600 0.509700 0.777400
vn -0.715700 0.389600 0.579600
vn -0.938600 0.186800 0.290100
vn -0.808900 0.227100 0.542300
vn -0.934600 0.171300 0.311600
vn 0.268900 0.308300 0.912500
vn 0.485600 0.189900 0.853300
vn 0.484100 0.465600 0.740800
vn -0.827500 -0.013200 0.561300
vn -0.042600 -0.732900 0.679000
vn -0.247400 -0.725200 0.642500
vn -0.877000 0.371000 -0.305200
vn -0.341700 0.199300 0.918400
vn -0.897800 0.030100 -0.439300
vn -0.524800 0.041000 0.850200
vn -0.810400 0.295400 -0.505900
vn -0.535400 0.175900 0.826000
vn -0.435400 -0.857800 0.273100
vn -0.840800 -0.042800 -0.539600
vn -0.575500 0.003800 0.817700
vn -0.549400 -0.088000 0.830900
vn -0.801100 -0.282000 -0.527800
vn -0.420400 -0.884900 0.200500
vn -0.858100 0.345700 0.379500
vn -0.391200 0.153400 -0.907400
vn -0.904400 0.031800 0.425400
vn -0.946400 -0.045300 0.319700
vn -0.450800 -0.072900 -0.889600
vn -0.496600 -0.856600 -0.140100
vn 0.267900 0.258200 -0.928200
vn -0.385800 0.023300 -0.922300
vn -0.438800 -0.892200 -0.106900
vn 0.270800 -0.034800 -0.962000
vn -0.941700 0.099600 -0.321400
vn -0.959400 -0.062000 -0.275100
vn -0.254200 -0.890300 -0.377700
vn -0.955700 -0.041200 -0.291400
vn 0.206600 -0.023400 -0.978100
vn -0.247100 -0.920300 -0.303100
vn 0.589900 0.221800 -0.776400
vn -0.783600 0.229900 -0.577200
vn 0.552100 0.031300 -0.833100
vn -0.810600 0.021100 -0.585200
vn -0.060400 -0.843800 -0.533200
vn -0.766400 0.029900 -0.641700
vn -0.556700 0.027800 0.830200
vn -0.076400 -0.921000 -0.382000
vn -0.822000 -0.170500 -0.543400
vn -0.829600 -0.139700 -0.540600
vn -0.520700 -0.133800 0.843100
vn -0.800200 0.280900 -0.529900
vn -0.669500 0.214300 0.711200
vn -0.364500 -0.925700 0.100900
vn -0.812100 0.112300 -0.572600
vn -0.568900 0.237800 0.787200
vn -0.759800 -0.140600 -0.634800
vn -0.627700 0.057400 0.776300
vn -0.288900 -0.956100 0.048900
vn -0.610900 -0.154200 0.776500
vn 0.091500 -0.972800 0.212700
vn 0.849600 0.001200 0.527300
vn -0.143200 -0.978700 0.146700
vn -0.171500 0.120500 -0.977800
vn -0.083500 -0.966000 -0.244500
vn -0.029100 -0.960300 -0.277500
vn -0.938400 0.062000 0.340000
vn -0.091900 -0.990500 -0.101900
vn -0.210000 0.148200 0.966400
vn 0.763100 0.068000 -0.642700
vn -0.178800 -0.964300 -0.195300
vn -0.685300 -0.186500 0.704000
vn -0.327400 0.136000 0.935000
vn -0.740900 0.080100 0.666700
vn -0.602700 -0.551600 0.576600
vn -0.337500 -0.193100 0.921300
vn -0.773600 -0.536500 -0.336900
vn -0.333700 -0.936900 0.104300
vn -0.817200 -0.573600 0.056500
vn -0.982100 -0.165100 0.091000
vn -0.921100 -0.229600 -0.314300
vn -0.986500 0.143100 0.078800
vn -0.522400 0.487500 0.699600
vn -0.496900 0.487100 0.718200
vn -0.011900 0.179600 0.983600
vn -0.012000 0.145100 0.989300
vn -0.315100 -0.535700 0.783400
vn -0.365600 -0.841300 -0.398100
vn -0.001400 -0.992800 0.120000
vn -0.359600 -0.590900 -0.722100
vn 0.004900 -0.913700 -0.406400
vn -0.607400 -0.586300 -0.536000
vn -0.009900 -0.566600 0.823900
vn -0.011800 -0.205700 0.978500
vn -0.889900 -0.249200 -0.381900
vn 0.578400 -0.510600 -0.636200
vn 0.009400 -0.629100 -0.777200
vn 0.434700 -0.460700 -0.773800
vn -0.873500 -0.194800 -0.446100
vn 0.559100 -0.377300 -0.738300
vn -0.198700 -0.910200 -0.363200
vn -0.289200 -0.913500 -0.286200
vn -0.978900 -0.149900 -0.139100
vn -0.162500 -0.134500 -0.977500
vn -0.289400 -0.200500 -0.935900
vn -0.849400 -0.378800 0.367500
vn -0.431300 -0.134200 -0.892100
vn -0.645600 -0.763600 0.004300
vn -0.879700 -0.011300 0.475300
vn -0.422600 -0.158800 -0.892300
vn -0.804800 -0.257500 0.534700
vn -0.564300 -0.156800 -0.810500
vn -0.631600 -0.775000 -0.022000
vn -0.845000 0.034500 0.533600
vn -0.346600 -0.115400 0.930900
vn -0.852600 -0.292500 -0.432900
vn -0.330200 -0.181600 0.926200
vn -0.824900 -0.221300 -0.520000
vn -0.333800 -0.148500 0.930800
vn -0.842900 -0.162200 -0.513000
vn -0.547600 -0.819400 0.169200
vn -0.978400 -0.097600 0.182400
vn -0.565800 -0.774400 0.283200
vn -0.980900 -0.082100 0.176400
vn 0.276200 -0.235300 0.931900
vn 0.263500 -0.148500 0.953100
vn -0.989400 -0.125300 0.073200
vn -0.279500 -0.783900 0.554400
vn 0.287000 -0.068300 0.955500
vn -0.338500 -0.731300 0.592000
vn -0.838500 -0.224300 0.496500
vn -0.851000 -0.174600 0.495200
vn 0.582700 -0.220100 0.782300
vn -0.113600 -0.839600 0.531100
vn 0.622200 -0.130800 0.771900
vn 0.616400 -0.033800 0.786700
vn -0.012100 -0.048500 0.998700
vn -0.012100 0.041700 0.999100
vn -0.860700 -0.158000 0.483900
vn -0.100700 -0.734800 0.670700
vn 0.594700 0.037700 0.803100
vn -0.450800 -0.090500 -0.888000
vn -0.469800 -0.000700 -0.882700
vn -0.496700 -0.159900 -0.853000
vn -0.675700 -0.723900 -0.139000
vn -0.823000 -0.059200 0.564900
vn -0.556400 0.003000 -0.830900
vn -0.767000 -0.234100 0.597400
vn -0.539500 0.020500 -0.841700
vn -0.790100 -0.050300 0.610900
vn -0.744200 -0.663700 -0.075300
vn -0.760800 0.017500 0.648700
vn 0.663400 -0.204600 -0.719700
vn 0.047200 0.950000 -0.308600
vn -0.167300 -0.436600 -0.883900
vn -0.004400 0.184500 0.982800
vn 0.029100 0.999600 0.002000
vn 0.124700 0.990900 0.051000
vn -0.753500 0.061300 0.654600
vn 0.071400 0.960100 -0.270400
vn -0.867300 -0.177300 -0.465000
vn 0.771600 0.146000 0.619100
vn -0.194200 0.977100 0.086300
vn -0.150900 0.970000 -0.190400
vn -0.827200 -0.056300 0.559100
vn 0.668000 -0.186500 0.720400
vn 0.304700 0.136000 0.942700
vn 0.315200 -0.193100 0.929200
vn 0.588600 -0.551600 0.591000
vn 0.296000 -0.535700 0.790800
vn 0.767000 -0.551900 -0.327200
vn 0.330700 -0.936900 0.112700
vn 0.373700 -0.841800 -0.389400
vn 0.979600 -0.165200 0.114600
vn 0.815900 -0.573100 0.076000
vn 0.724600 0.080100 0.684500
vn 0.984300 0.143100 0.102600
vn 0.505400 0.487500 0.712000
vn 0.784500 0.562200 0.261700
vn 0.479400 0.487100 0.730000
vn 0.376600 -0.590700 -0.713600
vn 0.663300 -0.544500 -0.513300
vn 0.928300 -0.230100 -0.292000
vn -0.562900 -0.510600 -0.650000
vn -0.415700 -0.460100 -0.784500
vn 0.981900 -0.149900 -0.115300
vn 0.884100 -0.194800 -0.424800
vn 0.898600 -0.269300 -0.346300
vn 0.207500 -0.910200 -0.358300
vn -0.541100 -0.377300 -0.751600
vn 0.296000 -0.913500 -0.279100
vn 0.247300 -0.179400 -0.952200
vn 0.868000 -0.277700 0.411600
vn 0.309600 -0.209500 -0.927500
vn 0.862700 -0.046700 0.503400
vn 0.452700 -0.134200 -0.881500
vn 0.791500 -0.258100 0.554000
vn 0.611300 -0.791100 0.021900
vn 0.444000 -0.158800 -0.881800
vn 0.813400 -0.056300 0.578900
vn 0.631900 -0.775000 -0.006700
vn 0.583700 -0.156800 -0.796600
vn 0.831800 0.034500 0.553900
vn 0.324000 -0.115400 0.939000
vn 0.307700 -0.181600 0.934000
vn 0.862800 -0.292500 -0.412200
vn 0.311200 -0.148500 0.938700
vn 0.543400 -0.819400 0.182400
vn 0.837300 -0.221300 -0.499900
vn 0.973700 -0.097600 0.206000
vn 0.558800 -0.774400 0.296800
vn 0.855100 -0.162200 -0.492400
vn -0.298600 -0.235300 0.924900
vn 0.976300 -0.082100 0.200100
vn -0.286500 -0.148500 0.946500
vn -0.310000 -0.068300 0.948200
vn 0.266000 -0.783900 0.561000
vn 0.324100 -0.731300 0.600000
vn 0.987300 -0.125300 0.097000
vn 0.826300 -0.224300 0.516600
vn -0.601400 -0.220100 0.768000
vn 0.838800 -0.174600 0.515600
vn -0.640600 -0.130800 0.756600
vn 0.100700 -0.839600 0.533700
vn -0.635300 -0.033800 0.771500
vn 0.848800 -0.158000 0.504600
vn -0.613900 0.037700 0.788400
vn 0.084400 -0.734800 0.673000
vn 0.472200 -0.090500 -0.876800
vn 0.809100 -0.059200 0.584600
vn 0.898900 -0.249600 -0.360000
vn 0.517200 -0.159900 -0.840800
vn 0.678900 -0.723900 -0.122600
vn 0.752300 -0.234100 0.615800
vn 0.576300 0.003000 -0.817200
vn 0.775100 -0.050300 0.629800
vn 0.559700 0.020500 -0.828400
vn 0.744900 0.017500 0.666900
vn 0.745800 -0.663700 -0.057300
vn -0.721000 0.093200 -0.686600
vn -0.111300 0.981900 -0.153000
vn 0.192900 0.976700 -0.094300
vn -0.006100 0.978600 0.205700
vn 0.062700 -0.158400 0.985400
vn -0.049500 0.969000 0.242100
vn 0.875000 0.011000 -0.483900
vn -0.035900 0.988900 0.143800
vn -0.707900 -0.087800 0.700700
vn 0.229000 0.961900 0.149500
vn -0.501900 0.465600 0.728900
vn -0.890000 -0.269300 -0.368000
vn -0.848200 0.104100 -0.519300
vn 0.491000 -0.000700 -0.871100
vn 0.786100 -0.567300 -0.245300
vn -0.857200 0.056900 -0.511700
vn -0.790600 0.562200 0.242700
vn 0.114500 -0.236400 -0.964800
vn 0.742900 -0.117000 0.659100
vn 0.361800 -0.029400 0.931800
vn 0.327300 0.201100 0.923200
vn 0.962000 -0.039200 0.270200
vn 0.745800 -0.171600 0.643600
vn 0.859400 -0.481800 0.171000
vn -0.011800 0.193400 0.981000
vn -0.012100 -0.026100 0.999600
vn 0.605800 0.357000 -0.711000
vn 0.011600 0.277700 -0.960600
vn 0.485900 -0.352500 0.799700
vn 0.688000 -0.724600 0.039800
vn -0.008000 -0.747200 0.664500
vn 0.548800 -0.802900 0.232800
vn -0.003900 -0.945800 0.324600
vn -0.011000 -0.417500 0.908600
vn 0.562900 0.480100 0.672700
vn 0.755300 -0.057600 0.652800
vn -0.014000 -0.855000 0.518400
vn 0.400400 0.592600 0.698900
vn 0.901300 -0.298000 0.314300
vn -0.434300 -0.320700 0.841700
vn 0.128100 -0.270200 0.954200
vn 0.347000 0.209400 -0.914200
vn 0.649300 -0.376200 -0.661000
vn -0.626200 -0.538900 -0.563400
vn -0.120100 -0.862500 -0.491500
vn -0.593500 -0.500000 0.630600
vn 0.341700 -0.057600 0.938000
vn 0.458200 0.000700 -0.888800
vn 0.744100 0.627100 -0.230400
vn 0.794800 -0.580700 -0.176100
vn -0.625700 -0.487700 -0.608800
vn 0.391400 0.498200 0.773700
vn 0.285800 -0.642700 0.710800
vn -0.782100 -0.606500 -0.142700
vn -0.084000 -0.104200 0.991000
vn 0.997100 0.074600 0.011600
vn -0.351100 -0.725100 -0.592400
vn 0.601400 -0.185500 -0.777100
vn 0.124800 -0.984100 -0.126600
vn 0.764200 -0.551600 0.334300
vn -0.384300 -0.029400 0.922700
vn -0.770900 -0.057600 0.634300
vn -0.968300 -0.039200 0.246800
vn -0.761200 -0.171600 0.625400
vn -0.349600 0.201100 0.915000
vn -0.588500 0.357000 -0.725400
vn -0.505200 -0.352500 0.787700
vn -0.688800 -0.724600 0.023100
vn -0.554300 -0.802900 0.219500
vn -0.863300 -0.481800 0.150200
vn -0.579000 0.480100 0.659000
vn 0.678400 -0.066300 -0.731700
vn -0.843700 -0.320400 -0.430500
vn 0.068700 -0.916300 -0.394500
vn 0.125900 0.195000 -0.972700
vn -0.539800 0.404300 -0.738300
vn 0.473100 -0.233100 0.849600
vn 0.026300 -0.793800 0.607600
vn -0.689200 0.246900 0.681200
vn -0.756700 -0.300400 0.580600
vn 0.001100 -0.546800 -0.837200
vn 0.398400 -0.353500 -0.846300
vn 0.108700 -0.336700 0.935300
vn 0.899700 -0.373800 0.225400
vn -0.917500 0.324600 0.229800
vn -0.436100 -0.650500 -0.621800
vn 0.550800 -0.173100 -0.816500
vn -0.205200 -0.929100 0.307700
vn 0.580900 -0.699000 0.417100
vn 0.580400 -0.685700 -0.439300
vn -0.809900 0.108300 -0.576400
vn -0.444700 -0.292900 0.846400
vn -0.477200 -0.768000 -0.427100
vn 0.612300 -0.728900 0.306100
vn -0.371000 -0.802800 0.466800
vn -0.357300 0.029800 -0.933500
vn -0.318500 -0.199200 -0.926700
vn -0.962300 0.035100 -0.269500
vn -0.731700 0.186700 -0.655500
vn -0.849300 0.488500 -0.200000
vn 0.011900 -0.188000 -0.982100
vn 0.012100 0.023800 -0.999600
vn -0.613600 -0.401700 0.679800
vn -0.011700 -0.239800 0.970700
vn -0.516600 0.344600 -0.783700
vn -0.648700 0.761000 -0.000900
vn 0.004300 0.934800 -0.355100
vn 0.008900 0.672800 -0.739700
vn 0.011100 0.401700 -0.915700
vn -0.578000 0.776600 -0.250600
vn -0.556000 -0.493300 -0.669000
vn -0.758400 0.061000 -0.648900
vn 0.417500 0.318900 -0.850900
vn -0.824500 0.549600 -0.134600
vn -0.453800 -0.758900 -0.467000
vn 0.641100 0.386200 -0.663200
vn 0.344800 0.430600 -0.834100
vn -0.231500 -0.097200 0.968000
vn -0.628100 0.572800 0.526600
vn 0.587800 0.495700 0.639300
vn -0.177400 0.942000 -0.284700
vn -0.117900 0.908300 0.401400
vn -0.428600 0.151100 -0.890700
vn -0.188700 0.980500 -0.055500
vn -0.383800 -0.072700 0.920500
vn 0.605300 0.478400 0.636200
vn -0.378100 -0.783700 0.492800
vn -0.960400 0.267200 -0.078700
vn -0.280500 0.082300 -0.956300
vn 0.978000 -0.165600 0.126700
vn 0.068400 0.910000 0.408900
vn -0.964600 0.014300 0.263400
vn -0.491900 0.142600 0.858900
vn -0.486700 -0.807900 0.332200
vn 0.142000 -0.708100 -0.691600
vn 0.167900 -0.523300 0.835400
vn 0.379800 0.029800 -0.924600
vn 0.773900 0.061000 -0.630300
vn 0.968600 0.035100 -0.246200
vn 0.747300 0.186700 -0.637700
vn 0.340900 -0.199200 -0.918700
vn 0.596900 -0.401700 0.694500
vn 0.535500 0.344600 -0.771000
vn 0.648600 0.761000 0.014800
vn 0.583900 0.776600 -0.236500
vn 0.853900 0.488500 -0.179400
vn 0.572000 -0.493300 -0.655300
vn 0.486100 -0.459400 0.743400
vn 0.162600 0.969300 0.184300
vn 0.810400 0.544500 0.216100
vn -0.046700 -0.139000 0.989200
vn -0.875300 -0.016400 0.483300
vn -0.263400 0.233700 -0.935900
vn 0.177400 0.850200 -0.495700
vn 0.650700 -0.180800 -0.737400
vn 0.710000 0.527600 -0.466400
vn -0.620800 0.658300 -0.425800
vn 0.302500 -0.059900 0.951200
vn -0.724900 -0.687900 0.034300
vn 0.014500 -0.029900 -0.999400
vn 0.868200 -0.403100 -0.289500
vn 0.994700 -0.072400 -0.072700
vn 0.116200 -0.892500 -0.435800
vn -0.458800 0.369900 0.807900
vn -0.590700 -0.347300 0.728400
vn 0.725500 -0.040000 0.687100
vn 0.461000 0.197700 -0.865100
vn 0.350500 -0.921100 0.169500
vn -0.859400 -0.281900 -0.426500
vn 0.407500 -0.751800 -0.518400
vn -0.010800 0.439800 0.898000
vn 0.011200 -0.377000 -0.926100
vn 0.358200 -0.795100 0.489400
vn 0.539000 0.795900 -0.275700
vn 0.618600 0.611400 0.493300
vn 0.575900 0.574600 -0.581400
vn 0.877800 0.051800 -0.476100
vn 0.580400 -0.732800 0.355000
vn 0.611200 -0.779300 -0.137900
vn 0.466800 0.802500 0.371700
vn 0.319100 0.300800 0.898700
vn 0.385100 0.183400 -0.904400
vn 0.527500 0.105300 0.843000
vn 0.948200 0.099400 0.301600
vn 0.245200 -0.843800 -0.477200
vn 0.385600 0.020300 -0.922400
vn -0.037900 0.033200 0.998700
vn 0.270800 -0.729800 0.627700
vn -0.025900 0.566400 0.823700
vn 0.440900 0.737400 0.511600
vn -0.132900 -0.758000 -0.638500
vn 0.039600 0.075200 -0.996400
vn 0.529000 0.691600 -0.491700
vn 0.013800 0.392500 -0.919600
vn 0.013200 0.067900 -0.997600
vn 0.017100 0.173400 -0.984700
vn 0.462100 0.068400 -0.884200
vn -0.024200 0.022400 -0.999500
vn 0.004300 0.107400 0.994200
vn 0.345400 0.028400 0.938000
vn 0.006300 0.021000 0.999800
vn 0.615600 0.013900 0.788000
vn 0.711900 -0.137400 -0.688700
vn 0.914100 -0.003000 -0.405300
vn 0.395300 0.006500 -0.918500
vn 0.751400 0.109700 0.650600
vn 0.961200 -0.042600 0.272500
vn -0.550400 -0.302800 0.778000
vn 0.698100 0.534400 0.476400
vn -0.653300 0.052100 0.755300
vn 0.435000 0.736100 0.518500
vn 0.453800 0.403600 -0.794400
vn -0.564800 -0.495700 -0.659700
vn 0.044000 -0.787300 0.615000
vn -0.368100 -0.508600 0.778300
vn 0.820000 0.230800 0.523700
vn 0.243000 0.592900 -0.767700
vn -0.842700 -0.073100 -0.533300
vn 0.530000 0.172600 -0.830300
vn -0.610000 -0.534000 -0.585400
vn -0.532600 0.799900 -0.276700
vn -0.579900 0.534400 0.614900
vn -0.493900 0.785900 0.371900
vn -0.581700 -0.658700 -0.477200
vn -0.930700 0.040900 0.363400
vn -0.903500 0.137700 -0.405700
vn -0.524000 0.158300 0.836900
vn -0.324400 0.216700 -0.920800
vn -0.580600 0.588200 -0.562900
vn -0.334400 -0.833600 0.439500
vn -0.573200 -0.016500 0.819200
vn -0.194900 -0.724400 -0.661200
vn -0.359700 0.132700 -0.923600
vn -0.053500 0.294100 0.954300
vn -0.513500 0.697900 -0.499200
vn -0.461600 0.719000 0.519500
vn -0.337500 0.025400 -0.940900
vn -0.608900 0.123800 0.783500
vn -0.661000 -0.106600 -0.742700
vn -0.915000 -0.022700 -0.402700
vn -0.534300 -0.621800 0.572600
vn -0.959400 0.008400 0.281700
vn 0.539800 -0.580800 -0.609300
vn 0.772100 -0.035800 -0.634500
vn -0.515600 0.561700 -0.647000
vn 0.554900 -0.290300 0.779600
vn -0.571200 0.548300 0.610800
vn -0.429900 -0.001800 -0.902800
vn -0.610300 0.001000 0.792200
vn -0.580400 -0.814200 0.014200
vn -0.717600 0.166900 -0.676100
vn -0.331300 0.664900 -0.669400
vn 0.739200 -0.017200 0.673200
vn -0.346400 0.688500 0.637100
vn 0.480100 -0.599400 -0.640400
vn 0.491500 -0.461400 0.738500
vn -0.655200 0.275200 0.703500
vn -0.610100 -0.640000 -0.467000
vn -0.527800 -0.786300 0.321300
vn -0.617400 -0.547900 0.564400
vn -0.580200 0.753400 -0.309400
vn -0.870100 -0.086900 0.485100
vn -0.587900 0.803400 0.094000
vn -0.259700 -0.323000 -0.910000
vn -0.431400 -0.803600 -0.410000
vn -0.342900 -0.194400 0.919000
vn -0.526700 -0.149100 -0.836800
vn -0.937900 -0.144000 -0.315700
vn -0.252700 0.856100 0.450800
vn -0.373600 -0.049600 0.926200
vn -0.292200 0.732800 -0.614500
vn 0.041700 -0.055100 -0.997600
vn 0.024600 -0.554800 -0.831600
vn -0.449300 -0.724600 -0.522600
vn 0.161300 0.748500 0.643200
vn -0.048600 -0.099800 0.993800
vn -0.534400 -0.661400 0.526300
vn -0.016600 -0.215400 0.976300
vn -0.013400 -0.067300 0.997600
vn 0.028700 -0.024400 0.999300
vn -0.462900 -0.066600 0.883900
vn -0.004300 -0.105600 -0.994400
vn -0.282100 -0.022000 -0.959100
vn -0.010100 -0.018000 -0.999800
vn -0.637000 0.001200 -0.770900
vn -0.708100 0.199400 0.677300
vn -0.909800 0.011400 0.415000
vn -0.378200 -0.009000 0.925700
vn -0.717600 -0.054400 -0.694200
vn -0.961200 0.056300 -0.269800
vn 0.417300 0.472000 -0.776500
vn -0.736800 -0.479900 -0.476100
vn 0.685100 -0.191400 -0.702800
vn -0.303800 -0.820900 -0.483500
vn -0.348200 -0.508300 0.787600
vn 0.456700 0.447100 0.769100
vn -0.040600 0.790400 -0.611200
vn 0.338900 0.544300 -0.767300
vn -0.836100 -0.188300 -0.515200
vn -0.130700 -0.710400 0.691500
vn 0.877000 -0.100100 0.469900
vn -0.527800 -0.164300 0.833300
vn 0.602800 0.536100 0.590800
vn 0.452700 -0.787400 -0.418400
vn 0.563800 -0.606300 0.560700
vn 0.519300 -0.791800 0.321600
vn 0.929200 -0.070300 -0.362800
vn 0.563100 0.697000 0.443900
vn 0.893200 -0.172200 0.415300
vn 0.499000 -0.161200 -0.851500
vn 0.579800 -0.523300 -0.624400
vn 0.265900 -0.239700 0.933700
vn 0.335800 0.844800 -0.416500
vn 0.580700 -0.007700 -0.814000
vn 0.194700 0.744900 0.638100
vn 0.324900 -0.164200 0.931400
vn 0.467900 -0.706900 -0.530400
vn 0.518100 -0.667000 0.535400
vn 0.292600 -0.023800 0.955900
vn 0.051500 -0.302300 -0.951800
vn 0.579100 -0.105200 -0.808400
vn 0.627000 0.168300 0.760600
vn 0.908000 0.042800 0.416700
vn 0.520700 0.659100 -0.542600
vn 0.959000 0.019100 -0.282500
vn -0.492900 0.618100 0.612300
vn 0.212500 -0.749500 0.626900
vn 0.545300 -0.515300 0.661100
vn -0.509400 0.342700 -0.789300
vn 0.570900 -0.576500 -0.584500
vn 0.423200 -0.002200 0.906000
vn 0.617400 -0.002600 -0.786600
vn 0.570800 0.820000 0.041900
vn 0.735900 -0.124500 0.665500
vn -0.797700 -0.116700 0.591600
vn -0.786900 -0.139900 -0.600900
vn 0.214300 -0.798200 -0.563000
vn -0.449800 0.632900 0.630100
vn -0.483600 0.463300 -0.742600
vn 0.653400 -0.267400 -0.708200
vn -0.011400 -0.327400 0.944800
vn -0.756200 -0.649500 0.078700
vn -0.564600 0.231200 0.792300
vn 0.105500 -0.647900 -0.754300
vn 0.651500 -0.755000 -0.074100
vn -0.056100 -0.998400 -0.000700
vn 0.654300 -0.651300 -0.384200
vn 0.714600 0.214300 0.665900
vn 0.562500 -0.620300 0.546600
vn -0.658100 -0.568300 -0.493800
vn -0.048200 -0.706000 0.706600
vn 0.036500 0.289600 0.956500
vn -0.576100 -0.540700 0.613000
vn 0.539800 0.200300 0.817600
vn 0.746300 -0.659400 0.090300
vn 0.056100 -0.998400 0.000600
vn -0.089900 -0.613400 -0.784600
vn 0.668100 -0.545200 -0.506300
vn -0.658700 -0.747400 -0.086200
vn -0.739400 0.210200 0.639600
vn 0.031100 -0.706000 0.707500
vn -0.059100 0.269000 0.961300
vn -0.575600 -0.620300 0.532800
vn 0.561100 -0.540700 0.626800
vn -0.356500 -0.932600 0.055500
vn 0.708300 0.669400 -0.224000
vn -0.649300 0.760400 -0.012900
vn 0.652200 0.557600 0.513400
vn -0.128600 0.558600 0.819300
vn -0.667900 0.626100 0.402200
vn 0.736700 0.275600 0.617500
vn 0.143400 0.571900 0.807700
vn 0.195000 -0.967400 -0.161400
vn 0.427500 -0.799300 0.422200
vn -0.613900 0.105700 0.782200
vn 0.171700 0.985100 0.002900
vn -0.691800 0.688800 -0.216500
vn 0.355800 -0.933300 0.047700
vn 0.666900 0.600100 0.441800
vn 0.678100 0.734900 -0.009000
vn -0.658200 0.530000 0.534700
vn 0.114000 0.508700 0.853400
vn -0.777900 0.319100 0.541200
vn -0.162900 0.571900 0.803900
vn -0.217100 -0.959000 -0.182000
vn -0.456300 -0.797200 0.395200
vn -0.171800 0.985100 -0.001300
vn 0.594800 0.105700 0.796800
vn -0.646900 -0.634100 -0.423500
usemtl Material.007
s 1
f 1//1 5//2 17//3
f 2//4 30//5 5//2
f 12//6 20//7 19//8
f 6//9 20//7 8//10
f 17//3 6//9 3//11
f 6//9 30//5 19//8
f 3//11 29//12 17//3
f 1//1 29//12 18//13
f 171//14 18//13 199//15
f 12//6 30//5 16//16
f 188//17 14//18 12//6
f 191//19 25//20 14//18
f 14//18 28//21 20//7
f 188//17 16//16 194//22
f 173//23 1//1 171//14
f 173//23 16//16 2//4
f 8//10 28//21 22//24
f 208//25 38//26 25//20
f 25//20 31//27 28//21
f 38//26 35//28 36//29
f 36//29 35//28 32//30
f 33//31 37//32 31//27
f 28//21 39//33 20//7
f 40//34 41//35 39//33
f 20//7 44//36 19//8
f 42//37 43//38 41//35
f 45//39 46//40 44//36
f 145//41 48//42 147//43
f 30//5 49//44 50//45
f 50//45 51//46 52//47
f 5//2 55//48 54//49
f 52//47 51//46 53//50
f 30//5 57//51 16//16
f 54//49 55//48 56//52
f 58//53 59//54 57//51
f 2//4 63//55 62//56
f 59//54 60//57 61//58
f 62//56 63//55 64//59
f 16//16 65//60 194//22
f 66//61 67//62 65//60
f 68//63 69//64 67//62
f 173//23 70//65 254//66
f 70//65 256//67 254//66
f 74//68 6//9 8//10
f 256//67 71//69 72//70
f 74//68 75//71 73//72
f 22//24 78//73 8//10
f 76//74 77//75 75//71
f 79//76 80//77 78//73
f 81//78 82//79 80//77
f 82//79 83//80 84//81
f 113//82 117//83 120//84
f 116//85 119//86 111//87
f 114//88 122//89 116//85
f 114//88 120//84 121//90
f 111//87 118//91 112//92
f 115//93 118//91 117//83
f 47//94 147//43 46//40
f 172//95 177//96 174//97
f 174//97 214//98 195//99
f 189//100 202//101 192//102
f 178//103 202//101 200//104
f 178//103 196//105 175//106
f 178//103 214//98 177//96
f 175//106 213//107 206//108
f 172//95 213//107 196//105
f 171//14 198//109 172//95
f 189//100 214//98 200//104
f 188//17 192//102 191//19
f 191//19 207//110 208//25
f 192//102 212//111 207//110
f 188//17 195//99 189//100
f 172//95 173//23 171//14
f 173//23 195//99 194//22
f 181//112 212//111 202//101
f 222//113 208//25 207//110
f 207//110 215//114 217//115
f 222//113 219//116 218//117
f 220//118 216//119 219//116
f 217//115 215//114 221//120
f 212//111 223//121 224//122
f 224//122 225//123 226//124
f 202//101 228//125 229//126
f 226//124 225//123 227//127
f 229//126 230//128 231//129
f 341//130 344//131 232//132
f 214//98 233//133 200//104
f 234//134 235//135 233//133
f 177//96 239//136 178//103
f 236//137 237//138 235//135
f 241//139 214//98 195//99
f 238//140 240//141 239//136
f 243//142 242//143 241//139
f 174//97 247//144 177//96
f 243//142 245//145 244//146
f 246//147 248//148 247//144
f 195//99 249//149 250//150
f 250//150 251//151 252//152
f 252//152 251//151 253//153
f 173//23 255//154 174//97
f 256//67 255//154 254//66
f 178//103 260//155 181//112
f 256//67 258//156 257//157
f 260//155 261//158 262//159
f 264//160 204//161 181//112
f 262//159 261//158 263//162
f 266//163 265//164 264//160
f 268//165 267//166 266//163
f 268//165 270//167 269//168
f 309//169 313//170 311//171
f 315//172 312//173 307//174
f 312//173 317//175 310//176
f 310//176 316//177 309//169
f 314//178 307//174 308//179
f 313//170 308//179 311//171
f 231//129 344//131 341//130
f 373//180 369//181 385//182
f 398//183 370//184 373//180
f 388//185 380//186 387//187
f 388//185 374//188 376//189
f 374//188 385//182 371//190
f 398//183 374//188 387//187
f 397//191 371//190 385//182
f 397//191 369//181 386//192
f 386//192 539//193 567//194
f 398//183 380//186 384//195
f 382//196 556//197 380//186
f 393//198 559//199 382//196
f 396//200 382//196 388//185
f 384//195 556//197 562//201
f 370//184 539//193 369//181
f 384//195 541//202 370//184
f 396//200 376//189 390//203
f 406//204 576//205 393//198
f 399//206 393//198 396//200
f 403//207 406//204 404//208
f 400//209 403//207 404//208
f 399//206 405//210 401//211
f 407//212 396//200 388//185
f 409//213 408//214 407//212
f 412//215 388//185 387//187
f 409//213 411//216 410//217
f 414//218 413//219 412//215
f 515//220 416//221 513//222
f 417//223 398//183 418//224
f 419//225 418//224 420//226
f 423//227 373//180 422//228
f 421//229 419//225 420//226
f 425//230 398//183 384//195
f 424//231 423//227 422//228
f 427//232 426//233 425//230
f 431//234 370//184 430//235
f 429//236 428//237 427//232
f 432//238 431//234 430//235
f 433//239 384//195 562//201
f 435//240 434//241 433//239
f 435//240 437//242 436//243
f 438//244 541//202 622//245
f 624//246 438//244 622//245
f 374//188 442//247 376//189
f 440//248 439//249 624//246
f 443//250 442//247 441//251
f 446//252 390//203 376//189
f 443//250 445//253 444//254
f 448//255 447//256 446//252
f 450//257 449//258 448//255
f 452//259 451//260 450//257
f 485//261 481//262 488//263
f 487//264 484//265 479//266
f 490//267 482//268 484//265
f 489//269 481//262 482//268
f 486//270 479//266 480//271
f 486//270 483//272 485//261
f 515//220 415//273 414//218
f 545//274 540//275 542//276
f 582//277 542//276 563//278
f 570//279 557//280 560//281
f 570//279 546//282 568//283
f 564//284 546//282 543//285
f 582//277 546//282 545//274
f 581//286 543//285 574//287
f 581//286 540//275 564//284
f 566//288 539//193 540//275
f 582//277 557//280 568//283
f 560//281 556//197 559//199
f 575//289 559//199 576//205
f 580//290 560//281 575//289
f 563//278 556//197 557//280
f 542//276 539//193 541//202
f 563//278 541//202 562//201
f 580//290 549//291 570//279
f 576//205 590//292 575//289
f 583//293 575//289 585//294
f 587//295 590//292 586//296
f 587//295 584//297 588//298
f 589//299 583//293 585//294
f 591//300 580//290 592//301
f 593//302 592//301 594//303
f 596//304 570//279 597//305
f 595//306 593//302 594//303
f 598//307 597//305 599//308
f 600//309 712//310 709//311
f 601//312 582//277 568//283
f 603//313 602//314 601//312
f 607//315 545//274 546//282
f 603//313 605//316 604//317
f 582//277 609//318 563//278
f 607//315 608//319 606//320
f 610//321 611//322 609//318
f 615//323 542//276 545//274
f 612//324 613//325 611//322
f 615//323 616//326 614//327
f 617//328 563//278 618//329
f 619//330 618//329 620//331
f 621//332 619//330 620//331
f 623//333 541//202 542//276
f 623//333 624//246 622//245
f 628//334 546//282 549//291
f 625//335 626//336 624//246
f 629//337 628//334 630//338
f 572//339 632//340 549//291
f 631//341 629//337 630//338
f 633//342 634//343 632//340
f 635//344 636//345 634//343
f 637//346 638//347 636//345
f 681//348 677//349 679//350
f 680//351 683//352 675//353
f 685//354 680//351 678//355
f 677//349 685//354 678//355
f 675//353 682//356 676//357
f 676//357 681//348 679//350
f 712//310 599//308 709//311
f 28//21 399//206 396//200
f 32//30 404//208 36//29
f 33//31 393//198 401//211
f 36//29 406//204 38//26
f 34//358 576//205 402//359
f 35//28 402//359 403//207
f 38//26 393//198 25//20
f 32//30 403//207 400//209
f 37//32 399//206 31//27
f 37//32 401//211 405//210
f 28//21 408//214 40//34
f 20//7 407//212 388//185
f 42//37 408//214 410//217
f 41//35 407//212 39//33
f 45//39 388//185 413//219
f 43//38 409//213 41//35
f 43//38 410//217 411//216
f 44//36 387//187 19//8
f 47//94 413//219 415//273
f 46//40 412//215 44//36
f 147//43 416//221 515//220
f 145//41 415//273 513//222
f 50//45 398//183 30//5
f 49//44 387//187 417//223
f 52//47 418//224 50//45
f 51//46 417//223 419//225
f 5//2 422//228 373//180
f 53//50 419//225 421//229
f 53//50 420//226 52//47
f 55//48 374//188 423//227
f 57//51 384//195 16//16
f 56//52 422//228 54//49
f 56//52 423//227 424//231
f 58//53 398//183 426//233
f 59//54 425//230 57//51
f 60//57 426//233 428//237
f 2//4 430//235 370//184
f 61//58 427//232 59//54
f 61//58 428//237 429//236
f 5//2 431//234 63//55
f 64//59 430//235 62//56
f 64//59 431//234 432//238
f 66//61 384//195 434//241
f 65//60 562//201 194//22
f 68//63 434//241 436//243
f 67//62 433//239 65//60
f 69//64 435//240 67//62
f 69//64 436//243 437//242
f 2//4 438//244 70//65
f 71//69 438//244 439//249
f 8//10 442//247 74//68
f 256//67 440//248 624//246
f 71//69 440//248 72//70
f 73//72 374//188 6//9
f 76//74 442//247 444//254
f 75//71 441//251 73//72
f 8//10 446//252 376//189
f 77//75 443//250 75//71
f 77//75 444//254 445//253
f 22//24 447//256 79//76
f 80//77 446//252 78//73
f 81//78 447//256 449//258
f 82//79 448//255 80//77
f 81//78 451//260 83//80
f 82//79 452//259 450//257
f 83//80 452//259 84//81
f 145//41 416//221 48//42
f 147//43 414//218 46//40
f 212//111 583//293 215//114
f 216//119 588//298 584//297
f 217//115 575//289 207//110
f 220//118 590//292 588//298
f 218//117 576//205 208//25
f 219//116 586//296 218//117
f 222//113 575//289 590//292
f 216//119 587//295 219//116
f 221//120 583//293 589//299
f 221//120 585//294 217//115
f 224//122 580//290 212//111
f 223//121 570//279 591//300
f 226//124 592//301 224//122
f 225//123 591//300 593//302
f 229//126 570//279 202//101
f 227//127 593//302 595//306
f 227//127 594//303 226//124
f 228//125 568//283 596//304
f 231//129 597//305 229//126
f 230//128 596//304 598//307
f 344//131 600//309 232//132
f 341//130 599//308 231//129
f 234//134 582//277 602//314
f 233//133 568//283 200//104
f 236//137 602//314 604//317
f 235//135 601//312 233//133
f 177//96 606//320 238//140
f 237//138 603//313 235//135
f 237//138 604//317 605//316
f 239//136 546//282 178//103
f 241//139 563//278 609//318
f 240//141 606//320 608//319
f 240//141 607//315 239//136
f 242//143 582//277 214//98
f 243//142 609//318 611//322
f 244//146 610//321 242//143
f 174//97 614//327 246//147
f 245//145 611//322 613//325
f 245//145 612//324 244//146
f 177//96 615//323 545//274
f 248//148 614//327 616//326
f 248//148 615//323 247//144
f 250//150 563//278 195//99
f 249//149 562//201 617//328
f 252//152 618//329 250//150
f 251//151 617//328 619//330
f 253//153 619//330 621//332
f 253//153 620//331 252//152
f 174//97 623//333 542//276
f 257//157 623//333 255//154
f 181//112 628//334 549//291
f 256//67 626//336 258//156
f 257//157 626//336 625//335
f 259//360 546//282 627//361
f 262//159 628//334 260//155
f 261//158 627//361 629//337
f 181//112 632//340 264//160
f 263//162 629//337 631//341
f 263//162 630//338 262//159
f 204//161 633//342 572//339
f 266//163 632//340 634//343
f 267//166 633//342 265//164
f 268//165 634//343 636//345
f 267//166 637//346 635//344
f 268//165 638//347 270//167
f 269//168 638//347 637//346
f 341//130 600//309 709//311
f 344//131 598//307 712//310
f 1//1 2//4 5//2
f 2//4 16//16 30//5
f 12//6 14//18 20//7
f 6//9 19//8 20//7
f 17//3 5//2 6//9
f 6//9 5//2 30//5
f 3//11 24//362 29//12
f 1//1 17//3 29//12
f 171//14 1//1 18//13
f 12//6 19//8 30//5
f 188//17 191//19 14//18
f 191//19 208//25 25//20
f 14//18 25//20 28//21
f 188//17 12//6 16//16
f 173//23 2//4 1//1
f 173//23 194//22 16//16
f 8//10 20//7 28//21
f 208//25 34//358 38//26
f 25//20 33//31 31//27
f 38//26 34//358 35//28
f 28//21 40//34 39//33
f 40//34 42//37 41//35
f 20//7 45//39 44//36
f 45//39 47//94 46//40
f 30//5 19//8 49//44
f 50//45 49//44 51//46
f 5//2 6//9 55//48
f 30//5 58//53 57//51
f 58//53 60//57 59//54
f 2//4 5//2 63//55
f 16//16 66//61 65//60
f 66//61 68//63 67//62
f 173//23 2//4 70//65
f 70//65 71//69 256//67
f 74//68 73//72 6//9
f 74//68 76//74 75//71
f 22//24 79//76 78//73
f 79//76 81//78 80//77
f 81//78 83//80 82//79
f 113//82 115//93 117//83
f 116//85 122//89 119//86
f 114//88 121//90 122//89
f 114//88 113//82 120//84
f 111//87 119//86 118//91
f 115//93 112//92 118//91
f 47//94 145//41 147//43
f 172//95 196//105 177//96
f 174//97 177//96 214//98
f 189//100 200//104 202//101
f 178//103 181//112 202//101
f 178//103 177//96 196//105
f 178//103 200//104 214//98
f 175//106 196//105 213//107
f 172//95 198//109 213//107
f 171//14 199//15 198//109
f 189//100 195//99 214//98
f 188//17 189//100 192//102
f 191//19 192//102 207//110
f 192//102 202//101 212//111
f 188//17 194//22 195//99
f 172//95 174//97 173//23
f 173//23 174//97 195//99
f 181//112 204//161 212//111
f 222//113 218//117 208//25
f 207//110 212//111 215//114
f 222//113 220//118 219//116
f 212//111 202//101 223//121
f 224//122 223//121 225//123
f 202//101 200//104 228//125
f 229//126 228//125 230//128
f 214//98 234//134 233//133
f 234//134 236//137 235//135
f 177//96 238//140 239//136
f 241//139 242//143 214//98
f 243//142 244//146 242//143
f 174//97 246//147 247//144
f 195//99 194//22 249//149
f 250//150 249//149 251//151
f 173//23 254//66 255//154
f 256//67 257//157 255//154
f 178//103 259//360 260//155
f 260//155 259//360 261//158
f 264//160 265//164 204//161
f 266//163 267//166 265//164
f 268//165 269//168 267//166
f 309//169 316//177 313//170
f 315//172 318//363 312//173
f 312//173 318//363 317//175
f 310//176 317//175 316//177
f 314//178 315//172 307//174
f 313//170 314//178 308//179
f 231//129 230//128 344//131
f 373//180 370//184 369//181
f 398//183 384//195 370//184
f 388//185 382//196 380//186
f 388//185 387//187 374//188
f 374//188 373//180 385//182
f 398//183 373//180 374//188
f 397//191 392//364 371//190
f 397//191 385//182 369//181
f 386//192 369//181 539//193
f 398//183 387//187 380//186
f 382//196 559//199 556//197
f 393//198 576//205 559//199
f 396//200 393//198 382//196
f 384//195 380//186 556//197
f 370//184 541//202 539//193
f 384//195 562//201 541//202
f 396//200 388//185 376//189
f 406//204 402//359 576//205
f 399//206 401//211 393//198
f 403//207 402//359 406//204
f 407//212 408//214 396//200
f 409//213 410//217 408//214
f 412//215 413//219 388//185
f 414//218 415//273 413//219
f 417//223 387//187 398//183
f 419//225 417//223 418//224
f 423//227 374//188 373//180
f 425//230 426//233 398//183
f 427//232 428//237 426//233
f 431//234 373//180 370//184
f 433//239 434//241 384//195
f 435//240 436//243 434//241
f 438//244 370//184 541//202
f 624//246 439//249 438//244
f 374//188 441//251 442//247
f 443//250 444//254 442//247
f 446//252 447//256 390//203
f 448//255 449//258 447//256
f 450//257 451//260 449//258
f 485//261 483//272 481//262
f 487//264 490//267 484//265
f 490//267 489//269 482//268
f 489//269 488//263 481//262
f 486//270 487//264 479//266
f 486//270 480//271 483//272
f 515//220 513//222 415//273
f 545//274 564//284 540//275
f 582//277 545//274 542//276
f 570//279 568//283 557//280
f 570//279 549//291 546//282
f 564//284 545//274 546//282
f 582//277 568//283 546//282
f 581//286 564//284 543//285
f 581//286 566//288 540//275
f 566//288 567//194 539//193
f 582//277 563//278 557//280
f 560//281 557//280 556//197
f 575//289 560//281 559//199
f 580//290 570//279 560//281
f 563//278 562//201 556//197
f 542//276 540//275 539//193
f 563//278 542//276 541//202
f 580//290 572//339 549//291
f 576//205 586//296 590//292
f 583//293 580//290 575//289
f 587//295 588//298 590//292
f 591//300 570//279 580//290
f 593//302 591//300 592//301
f 596//304 568//283 570//279
f 598//307 596//304 597//305
f 601//312 602//314 582//277
f 603//313 604//317 602//314
f 607//315 606//320 545//274
f 582//277 610//321 609//318
f 610//321 612//324 611//322
f 615//323 614//327 542//276
f 617//328 562//201 563//278
f 619//330 617//328 618//329
f 623//333 622//245 541//202
f 623//333 625//335 624//246
f 628//334 627//361 546//282
f 629//337 627//361 628//334
f 572//339 633//342 632//340
f 633//342 635//344 634//343
f 635//344 637//346 636//345
f 681//348 684//365 677//349
f 680//351 686//366 683//352
f 685//354 686//366 680//351
f 677//349 684//365 685//354
f 675//353 683//352 682//356
f 676//357 682//356 681//348
f 712//310 598//307 599//308
f 28//21 31//27 399//206
f 32//30 400//209 404//208
f 33//31 25//20 393//198
f 36//29 404//208 406//204
f 34//358 208//25 576//205
f 35//28 34//358 402//359
f 38//26 406//204 393//198
f 32//30 35//28 403//207
f 37//32 405//210 399//206
f 37//32 33//31 401//211
f 28//21 396//200 408//214
f 20//7 39//33 407//212
f 42//37 40//34 408//214
f 41//35 409//213 407//212
f 45//39 20//7 388//185
f 43//38 411//216 409//213
f 43//38 42//37 410//217
f 44//36 412//215 387//187
f 47//94 45//39 413//219
f 46//40 414//218 412//215
f 147//43 48//42 416//221
f 145//41 47//94 415//273
f 50//45 418//224 398//183
f 49//44 19//8 387//187
f 52//47 420//226 418//224
f 51//46 49//44 417//223
f 5//2 54//49 422//228
f 53//50 51//46 419//225
f 53//50 421//229 420//226
f 55//48 6//9 374//188
f 57//51 425//230 384//195
f 56//52 424//231 422//228
f 56//52 55//48 423//227
f 58//53 30//5 398//183
f 59//54 427//232 425//230
f 60//57 58//53 426//233
f 2//4 62//56 430//235
f 61//58 429//236 427//232
f 61//58 60//57 428//237
f 5//2 373//180 431//234
f 64//59 432//238 430//235
f 64//59 63//55 431//234
f 66//61 16//16 384//195
f 65//60 433//239 562//201
f 68//63 66//61 434//241
f 67//62 435//240 433//239
f 69//64 437//242 435//240
f 69//64 68//63 436//243
f 2//4 370//184 438//244
f 71//69 70//65 438//244
f 8//10 376//189 442//247
f 256//67 72//70 440//248
f 71//69 439//249 440//248
f 73//72 441//251 374//188
f 76//74 74//68 442//247
f 75//71 443//250 441//251
f 8//10 78//73 446//252
f 77//75 445//253 443//250
f 77//75 76//74 444//254
f 22//24 390//203 447//256
f 80//77 448//255 446//252
f 81//78 79//76 447//256
f 82//79 450//257 448//255
f 81//78 449//258 451//260
f 82//79 84//81 452//259
f 83//80 451//260 452//259
f 145//41 513//222 416//221
f 147//43 515//220 414//218
f 212//111 580//290 583//293
f 216//119 220//118 588//298
f 217//115 585//294 575//289
f 220//118 222//113 590//292
f 218//117 586//296 576//205
f 219//116 587//295 586//296
f 222//113 207//110 575//289
f 216//119 584//297 587//295
f 221//120 215//114 583//293
f 221//120 589//299 585//294
f 224//122 592//301 580//290
f 223//121 202//101 570//279
f 226//124 594//303 592//301
f 225//123 223//121 591//300
f 229//126 597//305 570//279
f 227//127 225//123 593//302
f 227//127 595//306 594//303
f 228//125 200//104 568//283
f 231//129 599//308 597//305
f 230//128 228//125 596//304
f 344//131 712//310 600//309
f 341//130 709//311 599//308
f 234//134 214//98 582//277
f 233//133 601//312 568//283
f 236//137 234//134 602//314
f 235//135 603//313 601//312
f 177//96 545//274 606//320
f 237//138 605//316 603//313
f 237//138 236//137 604//317
f 239//136 607//315 546//282
f 241//139 195//99 563//278
f 240//141 238//140 606//320
f 240//141 608//319 607//315
f 242//143 610//321 582//277
f 243//142 241//139 609//318
f 244//146 612//324 610//321
f 174//97 542//276 614//327
f 245//145 243//142 611//322
f 245//145 613//325 612//324
f 177//96 247//144 615//323
f 248//148 246//147 614//327
f 248//148 616//326 615//323
f 250//150 618//329 563//278
f 249//149 194//22 562//201
f 252//152 620//331 618//329
f 251//151 249//149 617//328
f 253//153 251//151 619//330
f 253//153 621//332 620//331
f 174//97 255//154 623//333
f 257//157 625//335 623//333
f 181//112 260//155 628//334
f 256//67 624//246 626//336
f 257//157 258//156 626//336
f 259//360 178//103 546//282
f 262//159 630//338 628//334
f 261//158 259//360 627//361
f 181//112 549//291 632//340
f 263//162 261//158 629//337
f 263//162 631//341 630//338
f 204//161 265//164 633//342
f 266//163 264//160 632//340
f 267//166 635//344 633//342
f 268//165 266//163 634//343
f 267//166 269//168 637//346
f 268//165 636//345 638//347
f 269//168 270//167 638//347
f 341//130 232//132 600//309
f 344//131 230//128 598//307
usemtl Material.008
f 9//367 22//24 7//368
f 4//369 24//362 3//11
f 4//369 27//370 23//371
f 9//367 183//372 180//373
f 7//368 28//21 25//20
f 199//15 15//374 197//375
f 180//373 26//376 9//367
f 3//11 8//10 4//369
f 18//13 24//362 10//377
f 184//378 11//379 186//380
f 11//379 209//381 186//380
f 10//377 23//371 11//379
f 23//371 26//376 11//379
f 184//378 13//382 10//377
f 10//377 15//374 18//13
f 9//367 27//370 21//383
f 183//372 25//20 208//25
f 4//369 22//24 21//383
f 139//384 144//385 140//386
f 143//387 152//388 144//385
f 140//386 141//389 137//390
f 139//384 142//391 143//387
f 138//392 141//389 142//391
f 151//393 160//394 152//388
f 149//395 153//396 155//397
f 143//387 150//398 151//393
f 141//389 150//398 142//391
f 154//399 155//397 153//396
f 152//388 154//399 144//385
f 152//388 155//397 156//400
f 144//385 153//396 141//389
f 160//394 163//401 164//402
f 152//388 157//403 149//395
f 150//398 159//404 151//393
f 149//395 158//405 150//398
f 162//406 164//402 163//401
f 157//403 164//402 161//407
f 158//405 163//401 159//404
f 157//403 162//406 158//405
f 182//408 204//161 203//409
f 206//108 176//410 175//106
f 176//410 211//411 203//409
f 183//372 182//408 180//373
f 179//412 212//111 204//161
f 199//15 193//413 198//109
f 180//373 210//414 209//381
f 175//106 181//112 178//103
f 206//108 198//109 185//415
f 184//378 187//416 185//415
f 209//381 187//416 186//380
f 185//415 205//417 206//108
f 210//414 205//417 187//416
f 190//418 184//378 185//415
f 193//413 185//415 198//109
f 182//408 211//411 210//414
f 183//372 207//110 179//412
f 176//410 204//161 181//112
f 340//419 335//420 336//421
f 340//419 349//422 339//423
f 337//424 336//421 333//425
f 335//420 338//426 334//427
f 334//427 337//424 333//425
f 350//428 357//429 349//422
f 347//430 351//431 337//424
f 339//423 348//432 338//426
f 338//426 347//430 337//424
f 351//431 354//433 352//434
f 352//434 350//428 340//419
f 350//428 353//435 347//430
f 351//431 340//419 337//424
f 358//436 361//437 357//429
f 347//430 358//436 350//428
f 349//422 356//438 348//432
f 348//432 355//439 347//430
f 360//440 362//441 359//442
f 355//439 362//441 358//436
f 357//429 360//440 356//438
f 356//438 359//442 355//439
f 390//203 377//443 375//444
f 392//364 372//445 371//190
f 395//446 372//445 391//447
f 551//448 377//443 548//449
f 396//200 375//444 393//198
f 383//450 567//194 565//451
f 394//452 548//449 377//443
f 376//189 371//190 372//445
f 392//364 386//192 378//453
f 554//454 378//453 552//455
f 577//456 379//457 554//454
f 391//447 378//453 379//457
f 395//446 379//457 394//452
f 381//458 552//455 378//453
f 383//450 378//453 386//192
f 395//446 377//443 389//459
f 393//198 551//448 576//205
f 390//203 372//445 389//459
f 511//460 508//461 512//462
f 519//463 512//462 520//464
f 509//465 508//461 505//466
f 510//467 507//468 511//460
f 510//467 505//466 506//469
f 528//470 519//463 520//464
f 523//471 509//465 517//472
f 518//473 511//460 519//463
f 518//473 509//465 510//467
f 523//471 522//474 521//475
f 522//474 520//464 512//462
f 523//471 520//464 524//476
f 522//474 509//465 521//475
f 532//477 527//478 528//470
f 525//479 520//464 517//472
f 527//478 518//473 519//463
f 526//480 517//472 518//473
f 532//477 530//481 531//482
f 529//483 528//470 525//479
f 530//481 527//478 531//482
f 530//481 525//479 526//480
f 572//339 550//484 571//485
f 544//486 574//287 543//285
f 579//487 544//486 571//485
f 550//484 551//448 548//449
f 580//290 547//488 572//339
f 561//489 567//194 566//288
f 578//490 548//449 577//456
f 549//291 543//285 546//282
f 566//288 574//287 553//491
f 553//491 554//454 552//455
f 555//492 577//456 554//454
f 573//493 553//491 574//287
f 579//487 555//492 573//493
f 552//455 558//494 553//491
f 553//491 561//489 566//288
f 579//487 550//484 578//490
f 575//289 551//448 547//488
f 572//339 544//486 549//291
f 707//495 704//496 703//497
f 717//498 708//499 707//495
f 704//496 705//500 701//501
f 706//502 703//497 702//503
f 701//501 706//502 702//503
f 717//498 726//504 718//505
f 705//500 721//506 715//507
f 716//508 707//495 706//502
f 705//500 716//508 706//502
f 720//509 721//506 719//510
f 718//505 720//509 708//499
f 721//506 718//505 715//507
f 708//499 719//510 705//500
f 725//511 730//512 726//504
f 726//504 715//507 718//505
f 724//513 717//498 716//508
f 723//514 716//508 715//507
f 727//515 729//516 728//517
f 726//504 727//515 723//514
f 724//513 729//516 725//511
f 727//515 724//513 723//514
f 9//367 21//383 22//24
f 4//369 23//371 24//362
f 4//369 21//383 27//370
f 9//367 7//368 183//372
f 7//368 22//24 28//21
f 199//15 18//13 15//374
f 180//373 209//381 26//376
f 3//11 6//9 8//10
f 18//13 29//12 24//362
f 184//378 10//377 11//379
f 11//379 26//376 209//381
f 10//377 24//362 23//371
f 23//371 27//370 26//376
f 184//378 201//518 13//382
f 10//377 13//382 15//374
f 9//367 26//376 27//370
f 183//372 7//368 25//20
f 4//369 8//10 22//24
f 139//384 143//387 144//385
f 143//387 151//393 152//388
f 140//386 144//385 141//389
f 139//384 138//392 142//391
f 138//392 137//390 141//389
f 151//393 159//404 160//394
f 149//395 141//389 153//396
f 143//387 142//391 150//398
f 141//389 149//395 150//398
f 154//399 156//400 155//397
f 152//388 156//400 154//399
f 152//388 149//395 155//397
f 144//385 154//399 153//396
f 160//394 159//404 163//401
f 152//388 160//394 157//403
f 150//398 158//405 159//404
f 149//395 157//403 158//405
f 162//406 161//407 164//402
f 157//403 160//394 164//402
f 158//405 162//406 163//401
f 157//403 161//407 162//406
f 182//408 179//412 204//161
f 206//108 205//417 176//410
f 176//410 205//417 211//411
f 183//372 179//412 182//408
f 179//412 207//110 212//111
f 199//15 197//375 193//413
f 180//373 182//408 210//414
f 175//106 176//410 181//112
f 206//108 213//107 198//109
f 184//378 186//380 187//416
f 209//381 210//414 187//416
f 185//415 187//416 205//417
f 210//414 211//411 205//417
f 190//418 201//518 184//378
f 193//413 190//418 185//415
f 182//408 203//409 211//411
f 183//372 208//25 207//110
f 176//410 203//409 204//161
f 340//419 339//423 335//420
f 340//419 350//428 349//422
f 337//424 340//419 336//421
f 335//420 339//423 338//426
f 334//427 338//426 337//424
f 350//428 358//436 357//429
f 347//430 353//435 351//431
f 339//423 349//422 348//432
f 338//426 348//432 347//430
f 351//431 353//435 354//433
f 352//434 354//433 350//428
f 350//428 354//433 353//435
f 351//431 352//434 340//419
f 358//436 362//441 361//437
f 347//430 355//439 358//436
f 349//422 357//429 356//438
f 348//432 356//438 355//439
f 360//440 361//437 362//441
f 355//439 359//442 362//441
f 357//429 361//437 360//440
f 356//438 360//440 359//442
f 390//203 389//459 377//443
f 392//364 391//447 372//445
f 395//446 389//459 372//445
f 551//448 375//444 377//443
f 396//200 390//203 375//444
f 383//450 386//192 567//194
f 394//452 577//456 548//449
f 376//189 374//188 371//190
f 392//364 397//191 386//192
f 554//454 379//457 378//453
f 577//456 394//452 379//457
f 391//447 392//364 378//453
f 395//446 391//447 379//457
f 381//458 569//519 552//455
f 383//450 381//458 378//453
f 395//446 394//452 377//443
f 393//198 375//444 551//448
f 390//203 376//189 372//445
f 511//460 507//468 508//461
f 519//463 511//460 512//462
f 509//465 512//462 508//461
f 510//467 506//469 507//468
f 510//467 509//465 505//466
f 528//470 527//478 519//463
f 523//471 521//475 509//465
f 518//473 510//467 511//460
f 518//473 517//472 509//465
f 523//471 524//476 522//474
f 522//474 524//476 520//464
f 523//471 517//472 520//464
f 522//474 512//462 509//465
f 532//477 531//482 527//478
f 525//479 528//470 520//464
f 527//478 526//480 518//473
f 526//480 525//479 517//472
f 532//477 529//483 530//481
f 529//483 532//477 528//470
f 530//481 526//480 527//478
f 530//481 529//483 525//479
f 572//339 547//488 550//484
f 544//486 573//493 574//287
f 579//487 573//493 544//486
f 550//484 547//488 551//448
f 580//290 575//289 547//488
f 561//489 565//451 567//194
f 578//490 550//484 548//449
f 549//291 544//486 543//285
f 566//288 581//286 574//287
f 553//491 555//492 554//454
f 555//492 578//490 577//456
f 573//493 555//492 553//491
f 579//487 578//490 555//492
f 552//455 569//519 558//494
f 553//491 558//494 561//489
f 579//487 571//485 550//484
f 575//289 576//205 551//448
f 572//339 571//485 544//486
f 707//495 708//499 704//496
f 717//498 718//505 708//499
f 704//496 708//499 705//500
f 706//502 707//495 703//497
f 701//501 705//500 706//502
f 717//498 725//511 726//504
f 705//500 719//510 721//506
f 716//508 717//498 707//495
f 705//500 715//507 716//508
f 720//509 722//520 721//506
f 718//505 722//520 720//509
f 721//506 722//520 718//505
f 708//499 720//509 719//510
f 725//511 729//516 730//512
f 726//504 723//514 715//507
f 724//513 725//511 717//498
f 723//514 724//513 716//508
f 727//515 730//512 729//516
f 726//504 730//512 727//515
f 724//513 728//517 729//516
f 727//515 728//517 724//513
usemtl Material.009
f 94//521 86//522 85//523
f 109//524 88//525 87//526
f 91//527 93//528 86//522
f 90//529 94//521 85//523
f 110//530 88//525 107//531
f 109//524 89//532 108//533
f 301//534 92//535 110//530
f 343//536 93//528 146//537
f 108//533 276//538 305//539
f 148//540 90//529 345//541
f 146//537 94//521 148//540
f 90//529 292//542 272//543
f 101//544 291//545 292//542
f 93//528 285//546 100//547
f 100//547 286//548 99//549
f 90//529 96//550 101//544
f 101//544 95//551 102//552
f 93//528 97//553 86//522
f 100//547 98//554 97//553
f 97//553 105//555 106//556
f 96//550 98//554 95//551
f 106//556 131//557 132//558
f 97//553 103//559 86//522
f 96//550 104//560 105//555
f 85//523 103//559 104//560
f 102//552 305//539 291//545
f 99//549 301//534 110//530
f 95//551 108//533 102//552
f 99//549 107//531 98//554
f 95//551 107//531 109//524
f 112//92 89//532 111//87
f 114//88 92//535 113//82
f 112//92 277//561 276//538
f 116//85 88//525 114//88
f 111//87 87//526 116//85
f 113//82 277//561 115//93
f 132//558 135//562 136//563
f 106//556 129//564 103//559
f 105//555 130//565 131//557
f 104//560 129//564 130//565
f 135//562 140//386 136//563
f 132//558 133//566 129//564
f 131//557 134//567 135//562
f 130//565 133//566 134//567
f 136//563 137//390 133//566
f 135//562 138//392 139//384
f 133//566 138//392 134//567
f 284//568 274//569 281//570
f 275//571 302//572 304//573
f 281//570 274//569 283//574
f 280//575 271//576 284//568
f 302//572 282//577 306//578
f 279//579 304//573 303//580
f 306//578 277//561 301//534
f 283//574 273//581 343//536
f 305//539 279//579 303//580
f 280//575 284//568 346//582
f 284//568 342//583 346//582
f 292//542 280//575 272//543
f 291//545 295//584 292//542
f 283//574 285//546 273//581
f 294//585 286//548 285//546
f 280//575 288//586 271//576
f 295//584 287//587 288//586
f 289//588 283//574 274//569
f 290//589 294//585 289//588
f 300//590 288//586 289//588
f 287//587 289//588 288//586
f 328//591 299//592 300//590
f 297//593 289//588 274//569
f 288//586 298//594 271//576
f 298//594 274//569 271//576
f 291//545 303//580 296//595
f 293//596 301//534 286//548
f 303//580 287//587 296//595
f 290//589 306//578 293//596
f 304//573 290//589 287//587
f 307//174 276//538 308//179
f 309//169 278//597 310//176
f 276//538 311//171 308//179
f 310//176 275//571 312//173
f 312//173 279//579 307//174
f 311//171 282//577 309//169
f 328//591 331//598 327//599
f 325//600 300//590 297//593
f 299//592 326//601 298//594
f 298//594 325//600 297//593
f 336//421 331//598 332//602
f 329//603 328//591 325//600
f 327//599 330//604 326//601
f 326//601 329//603 325//600
f 333//425 332//602 329//603
f 331//598 334//427 330//604
f 334//427 329//603 330//604
f 454//605 462//606 453//607
f 456//608 477//609 455//610
f 454//605 461//611 459//612
f 453//607 462//606 458//613
f 456//608 478//614 475//615
f 457//616 477//609 476//617
f 460//618 669//619 478//614
f 461//611 711//620 514//621
f 644//622 476//617 673//623
f 458//613 516//624 640//625
f 462//606 514//621 516//624
f 660//626 458//613 640//625
f 659//627 469//628 660//626
f 653//629 461//611 468//630
f 654//631 468//630 467//632
f 464//633 458//613 469//628
f 463//634 469//628 470//635
f 465//636 461//611 454//605
f 466//637 468//630 465//636
f 473//638 465//636 474//639
f 466//637 464//633 463//634
f 499//640 474//639 500//641
f 471//642 465//636 454//605
f 472//643 464//633 473//638
f 472//643 454//605 453//607
f 673//623 470//635 659//627
f 669//619 467//632 478//614
f 476//617 463//634 470//635
f 478//614 466//637 475//615
f 475//615 463//634 477//609
f 457//616 480//271 479//266
f 456//608 481//262 460//618
f 645//644 480//271 644//622
f 456//608 484//265 482//268
f 455//610 479//266 484//265
f 645//644 481//262 483//272
f 503//645 500//641 504//646
f 497//647 474//639 471//642
f 498//648 473//638 499//640
f 497//647 472//643 498//648
f 508//461 503//645 504//646
f 501//649 500//641 497//647
f 502//650 499//640 503//645
f 501//649 498//648 502//650
f 508//461 501//649 505//466
f 507//468 502//650 503//645
f 506//469 501//649 502//650
f 649//651 639//652 652//653
f 670//654 643//655 672//656
f 651//657 642//658 649//651
f 652//653 639//652 648//659
f 650//660 670//654 674//661
f 672//656 647//662 671//663
f 645//644 674//661 669//619
f 651//657 649//651 710//664
f 647//662 673//623 671//663
f 648//659 640//625 714//665
f 710//664 652//653 714//665
f 648//659 660//626 640//625
f 663//666 659//627 660//626
f 653//629 651//657 641//667
f 654//631 662//668 653//629
f 656//669 648//659 639//652
f 655//670 663//666 656//669
f 651//657 657//671 642//658
f 662//668 658//672 657//671
f 656//669 668//673 657//671
f 657//671 655//670 656//669
f 695//674 668//673 667//675
f 657//671 665//676 642//658
f 666//677 656//669 639//652
f 642//658 666//677 639//652
f 671//663 659//627 664//678
f 669//619 661//679 654//631
f 655//670 671//663 664//678
f 674//661 658//672 661//679
f 658//672 672//656 655//670
f 676//357 647//662 675//353
f 646//680 677//349 678//355
f 679//350 644//622 676//357
f 643//655 678//355 680//351
f 647//662 680//351 675//353
f 650//660 679//350 677//349
f 699//681 696//682 695//674
f 668//673 693//683 665//676
f 694//684 667//675 666//677
f 693//683 666//677 665//676
f 699//681 704//496 700//685
f 696//682 697//686 693//683
f 698//687 695//674 694//684
f 697//686 694//684 693//683
f 704//496 697//686 700//685
f 698//687 703//497 699//681
f 697//686 702//503 698//687
f 94//521 91//527 86//522
f 109//524 107//531 88//525
f 110//530 92//535 88//525
f 109//524 87//526 89//532
f 301//534 277//561 92//535
f 91//527 146//537 93//528
f 343//536 273//581 93//528
f 108//533 89//532 276//538
f 272//543 345//541 90//529
f 148//540 94//521 90//529
f 146//537 91//527 94//521
f 90//529 101//544 292//542
f 101//544 102//552 291//545
f 93//528 273//581 285//546
f 100//547 285//546 286//548
f 90//529 85//523 96//550
f 101//544 96//550 95//551
f 93//528 100//547 97//553
f 100//547 99//549 98//554
f 97//553 96//550 105//555
f 96//550 97//553 98//554
f 106//556 105//555 131//557
f 97//553 106//556 103//559
f 96//550 85//523 104//560
f 85//523 86//522 103//559
f 102//552 108//533 305//539
f 99//549 286//548 301//534
f 95//551 109//524 108//533
f 99//549 110//530 107//531
f 95//551 98//554 107//531
f 112//92 276//538 89//532
f 114//88 88//525 92//535
f 112//92 115//93 277//561
f 116//85 87//526 88//525
f 111//87 89//532 87//526
f 113//82 92//535 277//561
f 132//558 131//557 135//562
f 106//556 132//558 129//564
f 105//555 104//560 130//565
f 104//560 103//559 129//564
f 135//562 139//384 140//386
f 132//558 136//563 133//566
f 131//557 130//565 134//567
f 130//565 129//564 133//566
f 136//563 140//386 137//390
f 135//562 134//567 138//392
f 133//566 137//390 138//392
f 284//568 271//576 274//569
f 275//571 278//597 302//572
f 302//572 278//597 282//577
f 279//579 275//571 304//573
f 306//578 282//577 277//561
f 343//536 342//583 283//574
f 281//570 283//574 342//583
f 305//539 276//538 279//579
f 346//582 345//541 280//575
f 272//543 280//575 345//541
f 284//568 281//570 342//583
f 292//542 295//584 280//575
f 291//545 296//595 295//584
f 283//574 294//585 285//546
f 294//585 293//596 286//548
f 280//575 295//584 288//586
f 295//584 296//595 287//587
f 289//588 294//585 283//574
f 290//589 293//596 294//585
f 300//590 299//592 288//586
f 287//587 290//589 289//588
f 328//591 327//599 299//592
f 297//593 300//590 289//588
f 288//586 299//592 298//594
f 298//594 297//593 274//569
f 291//545 305//539 303//580
f 293//596 306//578 301//534
f 303//580 304//573 287//587
f 290//589 302//572 306//578
f 304//573 302//572 290//589
f 307//174 279//579 276//538
f 309//169 282//577 278//597
f 276//538 277//561 311//171
f 310//176 278//597 275//571
f 312//173 275//571 279//579
f 311//171 277//561 282//577
f 328//591 332//602 331//598
f 325//600 328//591 300//590
f 299//592 327//599 326//601
f 298//594 326//601 325//600
f 336//421 335//420 331//598
f 329//603 332//602 328//591
f 327//599 331//598 330//604
f 326//601 330//604 329//603
f 333//425 336//421 332//602
f 331//598 335//420 334//427
f 334//427 333//425 329//603
f 454//605 459//612 462//606
f 456//608 475//615 477//609
f 456//608 460//618 478//614
f 457//616 455//610 477//609
f 460//618 645//644 669//619
f 514//621 459//612 461//611
f 461//611 641//667 711//620
f 644//622 457//616 476//617
f 713//688 640//625 516//624
f 458//613 462//606 516//624
f 462//606 459//612 514//621
f 660//626 469//628 458//613
f 659//627 470//635 469//628
f 653//629 641//667 461//611
f 654//631 653//629 468//630
f 464//633 453//607 458//613
f 463//634 464//633 469//628
f 465//636 468//630 461//611
f 466//637 467//632 468//630
f 473//638 464//633 465//636
f 466//637 465//636 464//633
f 499//640 473//638 474//639
f 471//642 474//639 465//636
f 472//643 453//607 464//633
f 472//643 471//642 454//605
f 673//623 476//617 470//635
f 669//619 654//631 467//632
f 476//617 477//609 463//634
f 478//614 467//632 466//637
f 475//615 466//637 463//634
f 457//616 644//622 480//271
f 456//608 482//268 481//262
f 645//644 483//272 480//271
f 456//608 455//610 484//265
f 455//610 457//616 479//266
f 645//644 460//618 481//262
f 503//645 499//640 500//641
f 497//647 500//641 474//639
f 498//648 472//643 473//638
f 497//647 471//642 472//643
f 508//461 507//468 503//645
f 501//649 504//646 500//641
f 502//650 498//648 499//640
f 501//649 497//647 498//648
f 508//461 504//646 501//649
f 507//468 506//469 502//650
f 506//469 505//466 501//649
f 649//651 642//658 639//652
f 670//654 646//680 643//655
f 650//660 646//680 670//654
f 672//656 643//655 647//662
f 645//644 650//660 674//661
f 710//664 711//620 651//657
f 641//667 651//657 711//620
f 647//662 644//622 673//623
f 713//688 714//665 640//625
f 652//653 648//659 714//665
f 710//664 649//651 652//653
f 648//659 663//666 660//626
f 663//666 664//678 659//627
f 653//629 662//668 651//657
f 654//631 661//679 662//668
f 656//669 663//666 648//659
f 655//670 664//678 663//666
f 651//657 662//668 657//671
f 662//668 661//679 658//672
f 656//669 667//675 668//673
f 657//671 658//672 655//670
f 695//674 696//682 668//673
f 657//671 668//673 665//676
f 666//677 667//675 656//669
f 642//658 665//676 666//677
f 671//663 673//623 659//627
f 669//619 674//661 661//679
f 655//670 672//656 671//663
f 674//661 670//654 658//672
f 658//672 670//654 672//656
f 676//357 644//622 647//662
f 646//680 650//660 677//349
f 679//350 645//644 644//622
f 643//655 646//680 678//355
f 647//662 643//655 680//351
f 650//660 645//644 679//350
f 699//681 700//685 696//682
f 668//673 696//682 693//683
f 694//684 695//674 667//675
f 693//683 694//684 666//677
f 699//681 703//497 704//496
f 696//682 700//685 697//686
f 698//687 699//681 695//674
f 697//686 698//687 694//684
f 704//496 701//501 697//686
f 698//687 702//503 703//497
f 697//686 701//501 702//503
usemtl Material.010
f 123//689 167//690 117//83
f 125//691 127//692 126//693
f 119//86 128//694 125//691
f 122//89 127//692 128//694
f 127//692 166//695 169//696
f 119//86 124//697 118//91
f 118//91 123//689 117//83
f 167//690 168//698 165//699
f 165//699 169//696 166//695
f 126//693 170//700 123//689
f 126//693 169//696 168//698
f 120//84 167//690 165//699
f 121//90 165//699 166//695
f 365//701 319//702 313//170
f 322//703 321//704 320//705
f 321//704 318//363 315//172
f 318//363 323//706 317//175
f 323//706 364//707 317//175
f 320//705 315//172 314//178
f 319//702 314//178 313//170
f 366//708 365//701 363//709
f 367//710 363//709 364//707
f 368//711 322//703 319//702
f 322//703 367//710 323//706
f 316//177 365//701 313//170
f 317//175 363//709 316//177
f 535//712 491//713 485//261
f 495//714 492//715 491//713
f 493//716 490//267 487//264
f 495//714 490//267 496//717
f 537//718 489//269 495//714
f 492//715 487//264 486//270
f 491//713 486//270 485//261
f 536//719 535//712 533//720
f 536//719 534//721 537//718
f 538//722 494//723 491//713
f 536//719 495//714 494//723
f 535//712 488//263 533//720
f 534//721 488//263 489//269
f 687//724 733//725 681//348
f 692//726 691//727 688//728
f 686//366 689//729 683//352
f 685//354 692//726 686//366
f 685//354 735//730 691//727
f 683//352 688//728 682//356
f 682//356 687//724 681//348
f 733//725 734//731 731//732
f 734//731 732//733 731//732
f 690//734 736//735 687//724
f 691//727 734//731 690//734
f 733//725 684//365 681//348
f 684//365 732//733 685//354
f 123//689 170//700 167//690
f 126//693 123//689 124//697
f 124//697 125//691 126//693
f 128//694 127//692 125//691
f 119//86 122//89 128//694
f 122//89 121//90 127//692
f 127//692 121//90 166//695
f 119//86 125//691 124//697
f 118//91 124//697 123//689
f 167//690 170//700 168//698
f 165//699 168//698 169//696
f 126//693 168//698 170//700
f 126//693 127//692 169//696
f 120//84 117//83 167//690
f 121//90 120//84 165//699
f 365//701 368//711 319//702
f 320//705 319//702 322//703
f 322//703 323//706 321//704
f 324//736 321//704 323//706
f 321//704 324//736 318//363
f 318//363 324//736 323//706
f 323//706 367//710 364//707
f 320//705 321//704 315//172
f 319//702 320//705 314//178
f 366//708 368//711 365//701
f 367//710 366//708 363//709
f 368//711 366//708 322//703
f 322//703 366//708 367//710
f 316//177 363//709 365//701
f 317//175 364//707 363//709
f 535//712 538//722 491//713
f 491//713 494//723 495//714
f 495//714 496//717 492//715
f 493//716 492//715 496//717
f 493//716 496//717 490//267
f 495//714 489//269 490//267
f 537//718 534//721 489//269
f 492//715 493//716 487//264
f 491//713 492//715 486//270
f 536//719 538//722 535//712
f 536//719 533//720 534//721
f 538//722 536//719 494//723
f 536//719 537//718 495//714
f 535//712 485//261 488//263
f 534//721 533//720 488//263
f 687//724 736//735 733//725
f 687//724 688//728 691//727
f 689//729 692//726 688//728
f 691//727 690//734 687//724
f 686//366 692//726 689//729
f 685//354 691//727 692//726
f 685//354 732//733 735//730
f 683//352 689//729 688//728
f 682//356 688//728 687//724
f 733//725 736//735 734//731
f 734//731 735//730 732//733
f 690//734 734//731 736//735
f 691//727 735//730 734//731
f 733//725 731//732 684//365
f 684//365 731//732 732//733
usemtl Material.011
f 15//374 345//541 197//375
f 13//382 343//536 146//537
f 13//382 148//540 15//374
f 345//541 193//413 197//375
f 190//418 343//536 201//518
f 346//582 190//418 193//413
f 713//688 383//450 565//451
f 711//620 381//458 514//621
f 516//624 381//458 383//450
f 561//489 713//688 565//451
f 711//620 558//494 569//519
f 558//494 714//665 561//489
f 15//374 148//540 345//541
f 13//382 201//518 343//536
f 13//382 146//537 148//540
f 345//541 346//582 193//413
f 190//418 342//583 343//536
f 346//582 342//583 190//418
f 713//688 516//624 383//450
f 711//620 569//519 381//458
f 516//624 514//621 381//458
f 561//489 714//665 713//688
f 711//620 710//664 558//494
f 558//494 710//664 714//665
o Plane
v -50.000000 0.000000 50.000000
v 50.000000 0.000000 50.000000
v -50.000000 0.000000 -50.000000
v 50.000000 0.000000 -50.000000
vn 0.000000 1.000000 0.000000
usemtl Material.006
s 1
f 738//737 739//737 737//737
f 738//737 740//737 739//737
o Plane.001
v -50.000000 0.099037 -49.414398
v 50.000000 0.099037 -49.414398
v -50.000000 100.099037 -49.414406
v 50.000000 100.099037 -49.414406
vn 0.000000 0.000000 1.000000
usemtl Material.001
s 1
f 742//738 743//738 741//738
f 742//738 744//738 743//738
